%!PS-Adobe-3.0 EPSF-3.0
%%Title: ../figures/rooted-proba-vs-sample-roots/model1-rand2.eps
%%Creator: matplotlib version 1.5.2, http://matplotlib.org/
%%CreationDate: Sun Sep 25 22:29:33 2016
%%Orientation: portrait
%%BoundingBox: -54 36 666 756
%%EndComments
%%BeginProlog
/mpldict 10 dict def
mpldict begin
/m { moveto } bind def
/l { lineto } bind def
/r { rlineto } bind def
/c { curveto } bind def
/cl { closepath } bind def
/box {
m
1 index 0 r
0 exch r
neg 0 r
cl
} bind def
/clipbox {
box
clip
newpath
} bind def
%!PS-Adobe-3.0 Resource-Font
%%Title: Liberation Sans
%%Copyright: Copyright (c) 2007 Red Hat, Inc. All rights reserved. LIBERATION is a trademark of Red Hat, Inc.
%%Creator: Converted from TrueType to type 3 by PPR
25 dict begin
/_d{bind def}bind def
/_m{moveto}_d
/_l{lineto}_d
/_cl{closepath eofill}_d
/_c{curveto}_d
/_sc{7 -1 roll{setcachedevice}{pop pop pop pop pop pop}ifelse}_d
/_e{exec}_d
/FontName /LiberationSans def
/PaintType 0 def
/FontMatrix[.001 0 0 .001 0 0]def
/FontBBox[-203 -303 1050 910]def
/FontType 3 def
/Encoding [ /uni00A0 /period /zero /one /two /three /four /five /six /seven /eight /nine /d /e /i /m /n /o /s ] def
/FontInfo 10 dict dup begin
/FamilyName (Liberation Sans) def
/FullName (Liberation Sans) def
/Notice (Copyright (c) 2007 Red Hat, Inc. All rights reserved. LIBERATION is a trademark of Red Hat, Inc. Liberation is a trademark of Red Hat, Inc. registered in U.S. Patent and Trademark Office and certain other jurisdictions.) def
/Weight (Regular) def
/Version (Version 1.07.3) def
/ItalicAngle 0.0 def
/isFixedPitch false def
/UnderlinePosition -217 def
/UnderlineThickness 150 def
end readonly def
/CharStrings 19 dict dup begin
/uni00A0{278 0 0 0 0 0 _sc
}_d
/period{278 0 91 0 187 107 _sc
91 0 _m
91 107 _l
187 107 _l
187 0 _l
91 0 _l
_cl}_d
/zero{{556 0 39 -9 517 698 _sc
517 344 _m
517 278 510 222 498 177 _c
485 132 468 96 447 68 _c
425 40 400 20 371 8 _c
341 -3 310 -9 277 -9 _c
243 -9 212 -3 183 8 _c
154 20 129 39 108 67 _c
86 95 69 131 57 177 _c
45 222 39 278 39 344 _c
39 413 45 470 57 516 _c
69 561 86 597 108 625 _c
129 652 154 671 184 682 _c
213 692 245 698 280 698 _c
}_e{312 698 343 692 372 682 _c
401 671 426 652 448 625 _c
469 597 486 561 498 516 _c
510 470 517 413 517 344 _c
428 344 _m
428 398 424 444 418 480 _c
411 516 401 545 389 567 _c
376 589 360 604 342 613 _c
324 622 303 627 280 627 _c
255 627 233 622 214 613 _c
195 604 179 589 166 567 _c
153 545 143 516 137 480 _c
131 444 128 398 128 344 _c
128 291 131 247 138 211 _c
}_e{144 175 154 146 167 124 _c
180 102 196 86 214 76 _c
232 66 254 62 278 62 _c
301 62 322 66 340 76 _c
358 86 374 102 387 124 _c
400 146 410 175 417 211 _c
424 247 428 291 428 344 _c
_cl}_e}_d
/one{556 0 76 0 507 688 _sc
76 0 _m
76 75 _l
251 75 _l
251 604 _l
96 493 _l
96 576 _l
259 688 _l
340 688 _l
340 75 _l
507 75 _l
507 0 _l
76 0 _l
_cl}_d
/two{{556 0 50 0 506 698 _sc
50 0 _m
50 62 _l
66 100 87 133 111 163 _c
135 192 160 218 186 242 _c
212 265 239 287 265 307 _c
291 327 314 348 335 368 _c
355 388 372 409 385 431 _c
398 453 405 479 405 507 _c
405 526 402 543 396 558 _c
390 573 381 586 370 596 _c
359 606 346 613 331 618 _c
315 623 298 626 279 626 _c
261 626 245 623 230 618 _c
214 613 200 606 188 596 _c
}_e{176 586 166 574 158 560 _c
150 546 146 529 144 510 _c
54 518 _l
57 542 64 566 75 588 _c
85 610 100 629 119 645 _c
137 661 160 674 187 684 _c
213 693 244 698 279 698 _c
313 698 344 694 371 686 _c
397 678 420 666 438 650 _c
456 634 470 614 480 591 _c
490 567 495 540 495 510 _c
495 486 490 464 482 444 _c
474 423 463 403 449 384 _c
435 365 419 347 401 329 _c
}_e{383 311 364 294 344 278 _c
324 261 304 244 284 228 _c
264 212 245 195 227 179 _c
209 162 194 145 180 128 _c
166 111 155 93 147 75 _c
506 75 _l
506 0 _l
50 0 _l
_cl}_e}_d
/three{{556 0 38 -9 512 698 _sc
512 190 _m
512 158 506 130 496 105 _c
486 80 471 59 451 42 _c
431 25 407 12 378 4 _c
349 -4 316 -9 279 -9 _c
236 -9 200 -4 171 6 _c
141 16 117 30 99 48 _c
80 65 66 85 56 107 _c
46 129 40 153 38 177 _c
129 185 _l
131 167 136 150 143 135 _c
150 120 160 107 172 97 _c
184 86 198 78 216 72 _c
234 66 255 63 279 63 _c
}_e{323 63 357 73 383 95 _c
408 117 421 149 421 193 _c
421 218 415 238 404 254 _c
392 269 378 281 362 290 _c
345 298 327 304 307 307 _c
287 310 269 312 253 312 _c
203 312 _l
203 388 _l
251 388 _l
267 388 285 389 303 393 _c
321 396 337 402 352 411 _c
366 420 378 432 388 448 _c
398 463 403 483 403 507 _c
403 543 392 572 370 594 _c
348 615 316 626 274 626 _c
}_e{235 626 204 616 180 596 _c
156 576 142 548 138 512 _c
50 519 _l
53 549 61 575 74 598 _c
87 620 104 639 124 654 _c
144 668 166 679 192 687 _c
218 694 245 698 275 698 _c
313 698 346 693 374 683 _c
402 673 424 660 442 644 _c
459 628 472 609 480 587 _c
488 565 493 541 493 516 _c
493 496 490 477 485 459 _c
479 441 471 426 459 412 _c
447 398 432 386 414 376 _c
}_e{396 366 374 358 349 353 _c
349 351 _l
377 348 401 342 421 332 _c
441 322 458 310 472 296 _c
485 282 495 265 502 247 _c
508 229 512 210 512 190 _c
_cl}_e}_d
/four{556 0 23 0 527 688 _sc
430 156 _m
430 0 _l
347 0 _l
347 156 _l
23 156 _l
23 224 _l
338 688 _l
430 688 _l
430 225 _l
527 225 _l
527 156 _l
430 156 _l
347 589 _m
346 587 344 583 342 579 _c
339 574 336 569 333 563 _c
330 557 327 552 323 546 _c
319 540 316 535 314 531 _c
138 271 _l
136 268 134 264 131 260 _c
127 256 124 251 121 247 _c
118 243 115 239 112 235 _c
108 231 106 227 104 225 _c
347 225 _l
347 589 _l
_cl}_d
/five{{556 0 40 -9 514 688 _sc
514 224 _m
514 189 508 157 498 129 _c
488 100 472 75 452 55 _c
431 34 405 18 375 7 _c
345 -3 310 -9 270 -9 _c
234 -9 202 -5 175 3 _c
148 11 125 23 107 38 _c
89 52 74 70 63 90 _c
52 110 44 131 40 154 _c
129 164 _l
132 151 137 138 144 126 _c
150 114 159 103 171 93 _c
182 83 196 76 212 70 _c
228 64 248 62 272 62 _c
}_e{294 62 315 65 334 72 _c
352 79 368 89 381 103 _c
394 117 404 134 412 154 _c
419 174 423 196 423 222 _c
423 243 419 262 412 280 _c
405 298 395 313 383 326 _c
370 339 354 349 336 356 _c
318 363 297 367 274 367 _c
259 367 245 365 233 363 _c
221 360 209 356 199 352 _c
188 348 178 343 170 337 _c
161 331 153 324 146 318 _c
60 318 _l
83 688 _l
474 688 _l
474 613 _l
}_e{163 613 _l
150 395 _l
165 407 184 417 208 426 _c
232 434 260 439 292 439 _c
326 439 356 433 384 423 _c
411 413 434 398 454 379 _c
473 360 488 337 498 311 _c
508 284 514 255 514 224 _c
_cl}_e}_d
/six{{556 0 51 -9 512 698 _sc
512 225 _m
512 190 507 158 497 130 _c
487 101 473 76 455 56 _c
436 35 413 19 385 8 _c
357 -3 326 -9 290 -9 _c
250 -9 215 -1 185 13 _c
155 28 130 50 110 79 _c
90 108 76 143 66 185 _c
56 227 51 274 51 328 _c
51 389 56 443 67 489 _c
78 535 94 574 116 605 _c
137 635 163 658 193 674 _c
223 690 258 698 297 698 _c
}_e{320 698 342 695 363 691 _c
383 686 402 678 419 667 _c
435 656 450 642 463 624 _c
475 606 485 584 493 558 _c
409 543 _l
400 572 385 593 365 607 _c
345 620 322 627 296 627 _c
272 627 250 621 230 610 _c
210 598 194 581 180 559 _c
166 536 156 507 149 473 _c
141 439 138 399 138 354 _c
154 383 176 405 205 421 _c
234 437 267 445 305 445 _c
336 445 364 440 390 430 _c
}_e{415 420 437 405 455 386 _c
473 366 487 343 497 316 _c
507 289 512 259 512 225 _c
423 221 _m
423 245 420 266 414 285 _c
408 304 399 320 387 334 _c
375 348 361 358 344 366 _c
326 373 306 377 284 377 _c
268 377 251 374 235 370 _c
219 365 204 357 191 347 _c
178 336 167 322 159 305 _c
151 287 147 266 147 242 _c
147 216 150 193 157 171 _c
163 149 173 129 185 113 _c
}_e{197 97 211 84 229 75 _c
246 65 265 61 287 61 _c
308 61 327 64 344 72 _c
360 79 374 90 386 104 _c
398 118 407 134 413 154 _c
419 174 423 196 423 221 _c
_cl}_e}_d
/seven{556 0 51 0 506 688 _sc
506 617 _m
471 564 439 513 410 465 _c
381 416 356 367 336 318 _c
315 268 299 218 287 166 _c
275 114 270 58 270 0 _c
178 0 _l
178 55 184 109 197 162 _c
210 214 228 266 250 317 _c
272 368 298 418 328 468 _c
357 517 388 565 421 613 _c
51 613 _l
51 688 _l
506 688 _l
506 617 _l
_cl}_d
/eight{{556 0 43 -9 513 698 _sc
513 192 _m
513 162 508 135 499 111 _c
489 86 475 65 456 47 _c
437 29 413 16 383 6 _c
353 -4 318 -9 278 -9 _c
238 -9 203 -4 173 6 _c
143 16 119 29 100 47 _c
80 65 66 86 57 110 _c
47 134 43 161 43 191 _c
43 216 46 238 54 258 _c
62 277 72 294 85 308 _c
98 322 113 334 129 342 _c
145 350 163 356 181 360 _c
181 362 _l
}_e{161 366 144 374 129 384 _c
113 394 101 406 91 420 _c
81 434 73 449 68 467 _c
62 484 60 502 60 522 _c
60 546 64 568 73 590 _c
82 611 96 630 114 646 _c
132 662 155 674 182 684 _c
209 693 240 698 276 698 _c
314 698 346 693 374 684 _c
401 674 424 662 442 646 _c
460 630 473 611 482 589 _c
491 567 496 545 496 521 _c
496 502 493 484 487 467 _c
}_e{481 449 474 433 464 419 _c
454 405 441 393 426 383 _c
410 373 393 367 374 363 _c
374 361 _l
393 357 411 351 428 343 _c
445 334 460 323 472 309 _c
484 295 494 278 502 258 _c
509 238 513 216 513 192 _c
404 516 _m
404 533 401 549 397 563 _c
393 577 386 590 376 600 _c
366 610 352 618 336 624 _c
320 630 300 633 276 633 _c
253 633 234 630 218 624 _c
202 618 188 610 178 600 _c
}_e{168 590 160 577 156 563 _c
151 549 149 533 149 516 _c
149 502 150 488 154 474 _c
158 460 164 447 174 435 _c
183 423 196 413 213 406 _c
229 398 251 395 277 395 _c
305 395 327 398 344 406 _c
360 413 373 423 382 435 _c
391 447 397 460 400 474 _c
402 488 404 502 404 516 _c
421 200 _m
421 216 418 232 414 248 _c
410 263 402 277 391 289 _c
380 301 365 310 346 318 _c
}_e{327 325 304 329 276 329 _c
250 329 229 325 211 318 _c
193 310 178 301 167 289 _c
155 277 147 263 142 247 _c
136 231 134 215 134 198 _c
134 177 136 158 142 140 _c
147 122 155 107 167 95 _c
178 83 193 73 212 66 _c
230 59 253 56 279 56 _c
305 56 328 59 346 66 _c
364 73 379 83 390 95 _c
401 107 409 122 414 140 _c
418 158 421 178 421 200 _c
_cl}_e}_d
/nine{{556 0 47 -9 509 698 _sc
509 358 _m
509 296 503 243 491 197 _c
479 151 463 112 442 82 _c
420 51 394 28 363 13 _c
332 -1 298 -9 260 -9 _c
233 -9 209 -6 188 -1 _c
167 3 148 11 132 23 _c
115 35 101 50 89 68 _c
77 86 68 108 61 134 _c
145 147 _l
154 117 168 96 188 82 _c
207 68 231 61 261 61 _c
285 61 306 66 326 78 _c
346 89 362 106 376 128 _c
}_e{390 150 401 179 409 213 _c
417 247 421 286 422 332 _c
415 316 406 303 394 291 _c
382 279 368 268 353 260 _c
338 252 322 245 304 241 _c
286 237 269 235 251 235 _c
219 235 191 240 166 252 _c
140 263 119 279 102 299 _c
84 319 71 343 61 372 _c
51 400 47 432 47 467 _c
47 502 52 534 62 563 _c
72 591 87 616 107 636 _c
126 656 150 671 179 682 _c
}_e{207 692 240 698 276 698 _c
352 698 410 669 450 613 _c
489 556 509 471 509 358 _c
413 443 _m
413 468 410 492 404 514 _c
398 536 389 556 377 573 _c
365 589 350 602 333 612 _c
315 622 295 627 273 627 _c
251 627 232 623 215 615 _c
198 607 184 597 172 583 _c
160 569 151 553 145 533 _c
139 513 136 491 136 467 _c
136 443 138 422 144 402 _c
150 382 158 365 170 351 _c
}_e{182 336 196 324 213 316 _c
229 308 249 304 272 304 _c
288 304 304 306 321 312 _c
338 318 353 326 367 338 _c
380 349 391 363 400 381 _c
408 398 413 419 413 443 _c
_cl}_e}_d
/d{{556 0 42 -9 492 725 _sc
401 85 _m
384 51 362 26 336 12 _c
309 -2 276 -9 236 -9 _c
169 -9 120 13 89 58 _c
57 102 42 170 42 262 _c
42 446 106 538 236 538 _c
276 538 309 530 336 516 _c
362 501 384 478 401 446 _c
402 446 _l
402 449 401 454 401 461 _c
401 468 401 475 401 483 _c
401 491 401 498 401 505 _c
401 512 401 517 401 520 _c
401 725 _l
489 725 _l
489 109 _l
}_e{489 96 489 84 489 72 _c
489 60 489 50 489 40 _c
489 30 490 21 490 14 _c
490 7 491 2 492 0 _c
408 0 _l
407 3 406 8 406 14 _c
405 20 404 26 404 34 _c
404 42 403 50 403 59 _c
403 67 403 76 403 85 _c
401 85 _l
134 265 _m
134 228 136 197 141 171 _c
145 145 153 123 163 107 _c
173 90 185 78 201 70 _c
217 62 236 58 259 58 _c
}_e{281 58 302 61 320 69 _c
338 77 352 89 364 106 _c
376 122 385 144 391 171 _c
397 198 401 231 401 271 _c
401 308 397 339 391 365 _c
385 391 376 412 364 428 _c
352 444 337 455 320 462 _c
302 469 282 473 260 473 _c
238 473 220 469 204 462 _c
188 454 175 442 165 426 _c
154 409 146 387 141 361 _c
136 334 134 302 134 265 _c
_cl}_e}_d
/e{{556 0 42 -9 512 538 _sc
135 246 _m
135 218 137 192 143 169 _c
149 145 158 125 170 109 _c
182 92 197 79 215 70 _c
233 60 256 56 282 56 _c
320 56 350 63 373 79 _c
396 94 412 113 420 137 _c
498 115 _l
492 100 484 85 474 71 _c
464 56 450 43 434 31 _c
418 19 397 9 372 2 _c
347 -5 317 -9 282 -9 _c
204 -9 144 14 103 60 _c
62 106 42 176 42 268 _c
}_e{42 317 48 359 61 393 _c
73 427 90 455 112 477 _c
133 498 158 513 187 523 _c
215 533 246 538 279 538 _c
323 538 360 530 390 516 _c
420 502 444 482 462 457 _c
480 431 492 402 500 368 _c
508 334 512 297 512 257 _c
512 246 _l
135 246 _l
421 313 _m
416 368 402 408 378 434 _c
354 460 321 473 277 473 _c
262 473 247 470 231 466 _c
215 461 200 453 186 441 _c
}_e{172 429 161 412 152 392 _c
142 371 137 345 136 313 _c
421 313 _l
_cl}_e}_d
/i{222 0 67 0 155 725 _sc
67 641 _m
67 725 _l
155 725 _l
155 641 _l
67 641 _l
67 0 _m
67 528 _l
155 528 _l
155 0 _l
67 0 _l
_cl}_d
/m{{833 0 66 0 767 538 _sc
375 0 _m
375 335 _l
375 361 373 382 370 399 _c
366 416 361 430 353 441 _c
345 451 335 459 323 463 _c
311 467 296 470 278 470 _c
259 470 242 466 228 459 _c
213 451 200 441 190 427 _c
179 413 171 396 165 376 _c
159 356 157 332 157 306 _c
157 0 _l
69 0 _l
69 416 _l
69 426 69 438 69 450 _c
69 462 68 474 68 485 _c
68 495 67 505 67 513 _c
}_e{67 521 66 526 66 528 _c
149 528 _l
149 526 150 522 150 515 _c
150 507 151 499 151 490 _c
151 481 152 472 152 462 _c
152 452 153 444 153 438 _c
155 438 _l
163 453 171 467 180 479 _c
189 491 200 502 212 511 _c
224 519 238 526 254 531 _c
270 535 288 538 309 538 _c
349 538 380 530 404 514 _c
427 498 443 472 453 438 _c
454 438 _l
462 453 470 467 480 479 _c
}_e{490 491 501 502 514 511 _c
527 519 542 526 558 531 _c
574 535 593 538 614 538 _c
640 538 663 534 683 527 _c
702 520 718 509 731 494 _c
743 479 752 460 758 436 _c
764 412 767 384 767 352 _c
767 0 _l
680 0 _l
680 335 _l
680 361 678 382 675 399 _c
671 416 666 430 658 441 _c
650 451 640 459 628 463 _c
616 467 601 470 583 470 _c
565 470 548 466 533 459 _c
}_e{518 452 505 442 495 428 _c
484 414 476 397 470 377 _c
464 357 462 333 462 306 _c
462 0 _l
375 0 _l
_cl}_e}_d
/n{{556 0 66 0 491 538 _sc
403 0 _m
403 335 _l
403 361 401 382 397 399 _c
393 416 387 430 379 441 _c
370 451 359 459 345 463 _c
331 467 314 470 294 470 _c
273 470 254 466 237 459 _c
220 451 206 441 194 427 _c
182 413 173 396 167 376 _c
160 356 157 332 157 306 _c
157 0 _l
69 0 _l
69 416 _l
69 426 69 438 69 450 _c
69 462 68 474 68 485 _c
68 495 67 505 67 513 _c
}_e{67 521 66 526 66 528 _c
149 528 _l
149 526 150 522 150 515 _c
150 507 151 499 151 490 _c
151 481 152 472 152 462 _c
152 452 153 444 153 438 _c
155 438 _l
163 453 172 467 182 479 _c
192 491 204 502 218 511 _c
231 519 246 526 264 531 _c
281 535 301 538 324 538 _c
353 538 378 534 399 527 _c
420 520 437 509 451 494 _c
465 479 475 460 481 436 _c
487 412 491 384 491 352 _c
}_e{491 0 _l
403 0 _l
_cl}_e}_d
/o{{556 0 42 -9 514 538 _sc
514 265 _m
514 172 493 103 453 58 _c
412 13 353 -9 276 -9 _c
239 -9 206 -3 177 7 _c
148 17 124 34 104 57 _c
84 80 68 109 58 143 _c
47 177 42 218 42 265 _c
42 447 121 538 279 538 _c
319 538 355 532 385 521 _c
415 509 439 492 458 470 _c
477 447 491 418 500 384 _c
509 350 514 310 514 265 _c
422 265 _m
422 305 418 339 412 366 _c
}_e{406 392 396 414 384 430 _c
372 446 357 457 339 463 _c
321 469 302 473 280 473 _c
258 473 237 469 219 463 _c
201 456 185 445 173 429 _c
160 413 150 391 144 365 _c
137 338 134 305 134 265 _c
134 223 137 189 145 163 _c
152 136 162 115 174 99 _c
186 83 201 71 219 65 _c
236 58 255 55 275 55 _c
297 55 318 58 336 64 _c
354 70 369 82 382 98 _c
}_e{394 114 404 135 411 162 _c
418 189 422 223 422 265 _c
_cl}_e}_d
/s{{500 0 28 -9 464 537 _sc
464 146 _m
464 121 459 99 449 80 _c
439 60 425 44 407 31 _c
389 17 366 7 340 1 _c
314 -5 284 -9 250 -9 _c
219 -9 191 -6 167 -2 _c
142 2 120 9 102 20 _c
83 30 67 44 55 61 _c
43 78 34 99 28 124 _c
105 139 _l
113 111 128 90 152 77 _c
175 63 208 57 250 57 _c
268 57 285 58 301 61 _c
317 63 330 68 342 74 _c
}_e{353 80 362 89 368 100 _c
374 110 378 123 378 139 _c
378 155 374 168 367 178 _c
359 188 349 197 336 204 _c
322 210 306 216 287 221 _c
268 226 247 232 225 239 _c
203 244 182 250 161 257 _c
140 264 121 273 105 284 _c
88 295 74 309 64 326 _c
54 342 49 363 49 389 _c
49 437 66 473 100 499 _c
134 524 184 537 250 537 _c
308 537 355 526 389 506 _c
}_e{423 485 445 452 455 407 _c
375 397 _l
372 411 367 422 359 432 _c
351 441 342 448 331 454 _c
319 460 307 464 293 466 _c
279 468 265 470 250 470 _c
210 470 181 464 162 452 _c
143 440 134 421 134 397 _c
134 383 137 371 144 362 _c
151 352 161 344 174 338 _c
186 332 201 326 219 322 _c
237 317 256 312 277 307 _c
291 303 305 300 320 296 _c
334 292 349 287 363 281 _c
}_e{377 275 390 268 402 261 _c
414 253 424 244 434 233 _c
443 222 450 209 456 195 _c
461 181 464 164 464 146 _c
_cl}_e}_d
end readonly def

/BuildGlyph
 {exch begin
 CharStrings exch
 2 copy known not{pop /.notdef}if
 true 3 1 roll get exec
 end}_d

/BuildChar {
 1 index /Encoding get exch get
 1 index /BuildGlyph get exec
}_d

FontName currentdict end definefont pop
%!PS-Adobe-3.0 Resource-Font
%%Title: cmr10
%%Copyright: Copyright (C) 1994, Basil K. Malyshev. All Rights Reserved.012BaKoMa Fonts Collection, Level-B.
%%Creator: Converted from TrueType to type 3 by PPR
25 dict begin
/_d{bind def}bind def
/_m{moveto}_d
/_l{lineto}_d
/_cl{closepath eofill}_d
/_c{curveto}_d
/_sc{7 -1 roll{setcachedevice}{pop pop pop pop pop pop}ifelse}_d
/_e{exec}_d
/FontName /Cmr10 def
/PaintType 0 def
/FontMatrix[.001 0 0 .001 0 0]def
/FontBBox[-44 -250 1009 750]def
/FontType 3 def
/Encoding [ /two /one /three ] def
/FontInfo 10 dict dup begin
/FamilyName (cmr10) def
/FullName (cmr10) def
/Notice (Copyright (C) 1994, Basil K. Malyshev. All Rights Reserved.012BaKoMa Fonts Collection, Level-B. ) def
/Weight (Regular) def
/Version (1.1/12-Nov-94) def
/ItalicAngle 0.0 def
/isFixedPitch false def
/UnderlinePosition -133 def
/UnderlineThickness 20 def
end readonly def
/CharStrings 3 dict dup begin
/two{{500 0 50 0 449 666 _sc
50 0 _m
50 27 _l
50 28 50 30 52 32 _c
207 204 _l
230 229 249 250 264 268 _c
278 285 293 305 307 327 _c
321 349 333 372 341 396 _c
349 419 354 444 354 470 _c
354 497 349 523 339 548 _c
329 573 314 593 294 608 _c
274 623 249 631 221 631 _c
192 631 166 622 143 605 _c
119 587 103 565 94 537 _c
96 537 100 538 105 538 _c
}_e{119 538 132 533 143 523 _c
153 513 159 500 159 484 _c
159 468 153 455 143 445 _c
132 434 119 429 105 429 _c
89 429 76 434 66 445 _c
55 456 50 469 50 484 _c
50 508 54 532 64 554 _c
73 576 86 595 104 613 _c
122 630 142 643 164 652 _c
186 661 210 666 236 666 _c
274 666 309 658 342 642 _c
375 626 401 603 420 573 _c
439 543 449 509 449 470 _c
}_e{449 441 442 414 430 388 _c
417 362 401 338 381 317 _c
361 295 336 271 305 244 _c
274 217 254 199 244 190 _c
131 81 _l
227 81 _l
274 81 313 81 345 82 _c
377 82 394 84 396 86 _c
404 94 412 125 420 178 _c
449 178 _l
421 0 _l
50 0 _l
_cl}_e}_d
/one{500 0 87 0 421 666 _sc
93 0 _m
93 35 _l
176 35 218 45 218 67 _c
218 592 _l
183 575 139 567 87 567 _c
87 602 _l
168 602 230 623 272 666 _c
286 666 _l
288 666 291 665 293 663 _c
295 661 296 659 296 657 _c
296 67 _l
296 45 337 35 421 35 _c
421 0 _l
93 0 _l
_cl}_d
/three{{500 0 42 -21 457 666 _sc
95 77 _m
111 54 132 37 158 26 _c
184 15 213 10 243 10 _c
281 10 309 26 325 59 _c
341 92 350 130 350 172 _c
350 190 348 209 345 228 _c
341 247 335 265 327 281 _c
319 297 308 310 294 320 _c
280 330 262 335 242 335 _c
176 335 _l
170 335 167 338 167 344 _c
167 353 _l
167 358 170 361 176 361 _c
231 365 _l
254 365 273 373 289 391 _c
}_e{305 409 316 430 323 456 _c
330 481 334 505 334 528 _c
334 560 326 586 311 606 _c
296 626 273 637 243 637 _c
217 637 193 632 170 622 _c
147 612 129 598 115 579 _c
116 579 117 580 118 580 _c
119 580 120 580 122 580 _c
137 580 150 574 160 564 _c
170 554 175 541 175 527 _c
175 512 170 499 160 489 _c
150 479 137 474 122 474 _c
107 474 94 479 84 489 _c
}_e{74 499 69 512 69 527 _c
69 555 77 580 95 601 _c
112 622 134 638 161 649 _c
188 660 215 666 243 666 _c
263 666 284 663 307 657 _c
329 651 350 642 368 631 _c
386 619 401 605 413 588 _c
424 570 430 550 430 528 _c
430 500 423 474 411 450 _c
399 426 382 406 360 389 _c
338 371 314 358 288 350 _c
317 344 345 333 371 317 _c
397 301 417 280 433 255 _c
}_e{449 229 457 202 457 173 _c
457 136 446 103 426 73 _c
406 43 379 19 347 3 _c
314 -13 279 -21 243 -21 _c
211 -21 180 -15 149 -3 _c
117 8 92 25 72 49 _c
52 73 42 101 42 135 _c
42 151 47 165 58 176 _c
69 187 83 193 100 193 _c
110 193 120 190 129 185 _c
138 180 145 173 150 164 _c
155 154 158 145 158 135 _c
158 118 152 104 141 93 _c
}_e{129 82 116 77 100 77 _c
95 77 _l
_cl}_e}_d
end readonly def

/BuildGlyph
 {exch begin
 CharStrings exch
 2 copy known not{pop /.notdef}if
 true 3 1 roll get exec
 end}_d

/BuildChar {
 1 index /Encoding get exch get
 1 index /BuildGlyph get exec
}_d

FontName currentdict end definefont pop
%!PS-Adobe-3.0 Resource-Font
%%Title: cmmi10
%%Copyright: Copyright (C) 1994, Basil K. Malyshev. All Rights Reserved.012BaKoMa Fonts Collection, Level-B.
%%Creator: Converted from TrueType to type 3 by PPR
25 dict begin
/_d{bind def}bind def
/_m{moveto}_d
/_l{lineto}_d
/_cl{closepath eofill}_d
/_c{curveto}_d
/_sc{7 -1 roll{setcachedevice}{pop pop pop pop pop pop}ifelse}_d
/_e{exec}_d
/FontName /Cmmi10 def
/PaintType 0 def
/FontMatrix[.001 0 0 .001 0 0]def
/FontBBox[-34 -250 1048 750]def
/FontType 3 def
/Encoding [ /mu ] def
/FontInfo 10 dict dup begin
/FamilyName (cmmi10) def
/FullName (cmmi10) def
/Notice (Copyright (C) 1994, Basil K. Malyshev. All Rights Reserved.012BaKoMa Fonts Collection, Level-B. ) def
/Weight (Regular) def
/Version (1.1/12-Nov-94) def
/ItalicAngle 0.0 def
/isFixedPitch false def
/UnderlinePosition -133 def
/UnderlineThickness 20 def
end readonly def
/CharStrings 1 dict dup begin
/mu{{602 0 28 -215 575 442 _sc
28 -187 _m
28 -183 28 -180 29 -179 _c
176 410 _l
178 419 183 427 191 433 _c
199 439 208 442 218 442 _c
226 442 233 439 239 434 _c
245 429 248 422 248 414 _c
248 412 248 410 248 409 _c
248 408 247 407 247 406 _c
188 172 _l
181 144 178 120 178 100 _c
178 75 183 55 195 39 _c
207 23 225 15 249 15 _c
297 15 340 45 377 106 _c
}_e{377 106 377 107 377 107 _c
377 107 378 108 378 109 _c
450 399 _l
452 407 458 415 466 421 _c
474 427 482 431 492 431 _c
500 431 507 428 513 423 _c
519 418 522 411 522 403 _c
522 399 521 396 521 395 _c
449 107 _l
444 88 442 72 442 58 _c
442 29 451 15 471 15 _c
491 15 507 27 518 53 _c
528 79 538 110 546 147 _c
547 151 550 153 554 153 _c
566 153 _l
}_e{568 153 570 151 572 149 _c
574 147 575 145 575 143 _c
563 96 551 59 537 31 _c
523 3 500 -10 469 -10 _c
447 -10 427 -4 410 8 _c
393 20 382 37 377 59 _c
360 38 340 21 318 9 _c
296 -3 272 -10 248 -10 _c
206 -10 174 0 150 18 _c
99 -183 _l
97 -192 92 -200 84 -206 _c
76 -212 68 -215 58 -215 _c
50 -215 43 -212 37 -207 _c
31 -202 28 -195 28 -187 _c
_cl}_e}_d
end readonly def

/BuildGlyph
 {exch begin
 CharStrings exch
 2 copy known not{pop /.notdef}if
 true 3 1 roll get exec
 end}_d

/BuildChar {
 1 index /Encoding get exch get
 1 index /BuildGlyph get exec
}_d

FontName currentdict end definefont pop
end
%%EndProlog
mpldict begin
-54 36 translate
720 720 0 0 clipbox
100000 setmiterlimit
gsave
0 0 m
720 0 l
720 720 l
0 720 l
cl
1.000 setgray
fill
grestore
gsave
90 90 m
648 90 l
648 648 l
90 648 l
cl
1.000 setgray
fill
grestore
3.500 setlinewidth
1 setlinejoin
0 setlinecap
[] 0 setdash
1.000 0.000 0.000 setrgbcolor
gsave
558 558 90 90 clipbox
/o {
gsave
newpath
translate
3.5 setlinewidth
1 setlinejoin
0 setlinecap
-2.236068 -2.236068 m
2.236068 -2.236068 l
2.236068 2.236068 l
-2.236068 2.236068 l
cl

gsave
1.000 0.000 0.000 setrgbcolor
fill
grestore
stroke
grestore
} bind def
609.028 171.727 o
611.953 166.155 o
619.497 151.781 o
564.369 256.815 o
602.928 183.35 o
615.97 158.502 o
616.377 157.725 o
563.231 258.982 o
537.552 306.834 o
619.656 151.471 o
620.169 150.492 o
613.322 163.441 o
594.031 199.941 o
622.188 146.652 o
621.674 147.628 o
622.168 146.69 o
554.058 276.062 o
608.058 173.518 o
621.034 148.845 o
616.45 157.555 o
620.01 150.774 o
621.378 148.182 o
621.337 148.259 o
621.32 148.291 o
621.781 147.418 o
619.15 152.178 o
621.331 148.209 o
622.506 146.043 o
622.288 146.449 o
622.407 146.227 o
408.068 550.255 o
617.282 155.889 o
618.346 153.883 o
619.782 151.177 o
619.831 151.089 o
617.811 154.893 o
618.852 152.929 o
615.641 158.947 o
616.334 157.641 o
616.347 157.615 o
618.001 154.423 o
619.297 152.073 o
615.821 158.496 o
619.742 151.15 o
542.057 297.549 o
609.956 168.972 o
619.727 151.266 o
571.669 239.421 o
620.046 150.619 o
618.035 154.214 o
456.351 461.299 o
609.521 170.483 o
548.432 265.027 o
618.279 153.792 o
616.372 156.511 o
619.7 151.076 o
616.031 157.902 o
621.771 147.374 o
620.966 148.797 o
598.424 188.09 o
438.225 422.13 o
595.1 190.981 o
618.618 152.491 o
619.457 151.159 o
594.046 194.556 o
614.933 158.941 o
620.827 148.928 o
597.023 192.996 o
621.553 147.724 o
621.851 147.139 o
621.871 146.51 o
591.48 199.819 o
621.018 148.179 o
620.316 149.631 o
618.684 151.8 o
599.933 187.671 o
622.117 146.694 o
585.204 213.928 o
616.481 152.332 o
621.697 146.912 o
616.098 151.957 o
530.143 284.994 o
615.669 157.222 o
600.196 176.202 o
609.288 165.628 o
526.136 203.438 o
385.816 362.553 o
604.165 166.637 o
589.152 188.252 o
553.495 233.885 o
614.791 157.609 o
617.464 154.178 o
415.173 450.84 o
341.038 405.228 o
620.044 150.209 o
621.127 148.3 o
326.452 432.41 o
619.361 151.56 o
609.804 168.556 o
365.351 612.963 o
619.906 150.686 o
608.71 170.578 o
611.487 165.961 o
496.866 369.636 o
618.3 153.556 o
374.724 610.816 o
478.189 416.027 o
516.749 341.889 o
612.523 164.574 o
613.566 162.62 o
619.554 151.52 o
620.366 150.015 o
436.53 499.052 o
612.389 165.199 o
615.756 158.801 o
617.306 155.862 o
618.861 152.917 o
620.012 150.757 o
600.266 184.959 o
620.265 150.206 o
619.946 150.614 o
620.431 149.932 o
619.649 151.393 o
620.761 149.315 o
582.657 220.035 o
408.158 553.34 o
621.416 148.09 o
622.567 145.931 o
622.62 145.825 o
622.61 145.829 o
622.628 145.816 o
622.231 146.212 o
622.627 145.816 o
622.627 145.816 o
618.609 153.416 o
598.806 190.66 o
620.516 149.797 o
619.403 151.908 o
619.673 151.4 o
621.242 148.43 o
584.629 215.189 o
606.099 176.845 o
611.25 167.15 o
617.557 155.433 o
609.064 171.324 o
615.016 160.231 o
615.665 159.013 o
593.47 200.899 o
619.58 151.586 o
617.682 155.175 o
608.785 172.01 o
620.227 150.356 o
621.768 147.444 o
611.675 161.22 o
620.592 149.573 o
578.578 218.932 o
579.394 218.106 o
621.719 147.501 o
621.895 147.172 o
619.639 151.306 o
602.676 179.692 o
621.738 147.422 o
620.978 148.776 o
621.845 147.223 o
621.886 147.143 o
622.196 146.605 o
622.416 146.201 o
622.076 146.855 o
513.55 343.863 o
621.725 147.469 o
621.983 147.023 o
610.6 168.163 o
621.18 148.508 o
621.644 147.646 o
609.522 170.172 o
617.929 154.53 o
621.876 147.214 o
621.508 147.895 o
619.03 152.331 o
622.029 146.945 o
622.462 146.13 o
619.781 151.094 o
619.946 150.79 o
620.543 149.689 o
588.588 208.13 o
622.047 146.893 o
620.266 150.193 o
621.563 147.787 o
604.11 179.735 o
621.723 147.487 o
607.824 172.47 o
617.328 155.538 o
620.336 150.016 o
616.865 156.334 o
568.991 208.795 o
621.501 147.827 o
607.995 171.871 o
584.614 215.791 o
621.027 148.751 o
621.62 147.666 o
622.116 146.756 o
622.272 146.468 o
490.262 388.595 o
501.75 367.502 o
621.48 147.92 o
498.137 374.162 o
582.422 219.559 o
589.038 207.414 o
523.573 327.502 o
551.6 276.961 o
621.518 147.859 o
617.266 155.695 o
583.84 217.163 o
605.745 177.354 o
596.849 193.779 o
540.269 290.274 o
568.054 244.482 o
621.498 147.884 o
616.117 157.82 o
621.984 147 o
620.395 149.865 o
621.708 146.986 o
621.155 147.726 o
619.815 150.663 o
621.869 147.156 o
611.847 164.754 o
605.726 170.717 o
620.306 149.559 o
620.585 149.26 o
617.625 153.079 o
619.202 150.757 o
620.143 149.421 o
609.528 162.423 o
612.171 162.938 o
614.052 159.731 o
586.46 210.349 o
619.564 150.851 o
620.535 149.24 o
619.9 149.8 o
620.234 149.702 o
616.008 156.324 o
622.49 146.041 o
622.497 146.03 o
622.497 146.031 o
618.213 153.958 o
555.617 269.275 o
611.739 165.767 o
566.756 250.823 o
600.502 186.392 o
621.362 148.159 o
606.998 174.504 o
619.811 151.056 o
621.467 147.962 o
621.65 147.626 o
617.991 154.441 o
621.391 148.098 o
614.574 160.834 o
595.331 196.985 o
607.572 171.622 o
613.662 162.397 o
592.343 202.167 o
525.556 283.274 o
543.639 265.183 o
561.304 260.696 o
614.485 160.56 o
619.656 151.311 o
620.224 150.237 o
620.713 149.246 o
621.056 148.694 o
621.641 147.651 o
621.588 147.756 o
621.436 148.026 o
532.246 296.027 o
620.872 149.084 o
621.643 147.618 o
618.234 153.506 o
619.776 151.041 o
619.068 152.428 o
560.151 250.803 o
612.693 164.347 o
558.523 258.269 o
505.15 345.805 o
463.802 436.913 o
616.747 156.524 o
617.551 154.889 o
528.368 300.054 o
621.476 147.8 o
621.175 148.121 o
620.591 149.005 o
622.612 145.839 o
580.183 223.115 o
620.106 150.402 o
622.004 146.951 o
622.259 146.487 o
622.322 146.377 o
622.379 146.271 o
622.352 146.319 o
622.433 146.185 o
622.098 146.822 o
613.497 163.148 o
622.341 146.361 o
621.497 147.963 o
618.127 154.347 o
621.289 148.352 o
621.657 147.654 o
622.077 146.861 o
622.154 146.714 o
622.341 146.36 o
615.776 150.026 o
622.21 146.604 o
622.469 146.116 o
622.017 146.621 o
611.157 167.54 o
621.812 147.28 o
620.381 150.054 o
620.391 150.037 o
603.797 181.496 o
612.56 164.879 o
603.197 182.661 o
616.041 158.275 o
621.512 147.869 o
620.684 149.49 o
612.643 164.285 o
622.161 146.686 o
612.878 163.293 o
622.299 146.426 o
610.521 167.873 o
622.322 146.386 o
622.339 146.354 o
622.056 146.845 o
622.311 146.4 o
622.231 146.549 o
619.442 151.171 o
622.26 146.496 o
622.304 146.416 o
618.856 152.862 o
grestore
0.000 0.502 0.000 setrgbcolor
gsave
558 558 90 90 clipbox
/o {
gsave
newpath
translate
3.5 setlinewidth
1 setlinejoin
0 setlinecap
-0 -3.162278 m
3.162278 0 l
0 3.162278 l
-3.162278 0 l
cl

gsave
0.000 0.502 0.000 setrgbcolor
fill
grestore
stroke
grestore
} bind def
369 629.042 o
369.8 627.518 o
371.412 624.446 o
361.759 612.143 o
374.622 617.669 o
372.067 617.325 o
368.915 620.402 o
413.043 543.293 o
368.617 618.898 o
378.347 610.323 o
377.752 611.858 o
370.315 625.278 o
371.987 622.22 o
373.517 619.447 o
372.918 621.234 o
375.162 617.06 o
375.835 615.924 o
364.77 615.885 o
395.601 577.15 o
375.718 613.689 o
527.964 324.536 o
395.071 577.586 o
537.069 306.103 o
380.663 602.464 o
376.112 612.379 o
357.235 599.174 o
275.387 431.373 o
352.923 592.388 o
269.681 427.45 o
274.121 431.439 o
367.594 615.793 o
119.372 153.162 o
367.538 618.901 o
369.044 613.004 o
351.539 579.773 o
369.624 623.867 o
369.586 625.911 o
358.432 607.194 o
367.288 617.803 o
362.92 615.365 o
267.911 433.78 o
378.476 595.975 o
313.531 512.947 o
352.752 586.99 o
368.196 606.591 o
364.359 611.679 o
370.926 614.221 o
325.483 539.465 o
362.381 611.4 o
366.846 617.524 o
360.354 581.558 o
354.417 576.264 o
366.495 619.083 o
357.636 603.869 o
389.702 583.642 o
371.793 621.688 o
392.99 580.824 o
370.302 621.714 o
325.33 517.082 o
362.917 610.045 o
370.323 612.725 o
361.862 594.073 o
284.825 435.079 o
289.303 438.668 o
341.034 574.648 o
343.838 569.794 o
369.285 617.861 o
373.09 618.798 o
368.24 621.587 o
367.833 622.797 o
347.917 579.76 o
369.908 623.703 o
369.841 626.401 o
462.201 441.552 o
405.124 527.739 o
310.6 504.997 o
132.129 171.011 o
313.81 511.183 o
282.109 449.649 o
184.576 237.851 o
348.164 546.536 o
177.352 232.076 o
364.955 575.926 o
377.413 577.066 o
363.295 586.827 o
245.37 364.297 o
248.217 356.666 o
410.046 399.155 o
272.485 436.168 o
373.674 592.574 o
362.954 598.163 o
367.648 606.075 o
405.164 460.229 o
358.429 469.778 o
388.296 465.563 o
399.718 545.966 o
370.07 619.206 o
369.142 621.853 o
368.615 623.856 o
382.094 597.583 o
369.819 617.532 o
374.014 614.31 o
354.881 503.964 o
371.424 617.221 o
371.023 620.308 o
368.327 620.613 o
367.675 619.102 o
370.522 616.701 o
413.052 531.873 o
367.73 620.613 o
359.866 610.568 o
418.138 496.253 o
384.927 509.392 o
365.959 580.412 o
462.329 412.68 o
399.52 567.009 o
417.354 533.696 o
371.792 619.085 o
370.885 621.364 o
376.942 612.345 o
436.572 489.562 o
408.549 533.124 o
372.836 620.068 o
377.05 610.65 o
367.961 625.035 o
369.029 628.617 o
368.95 628.652 o
368.754 628.336 o
366.382 623.865 o
365.574 622.447 o
258.567 418.615 o
353.203 597.647 o
375.095 615.365 o
380.267 604.11 o
366.935 624.099 o
370.38 624.538 o
369.735 626.191 o
369.315 626.397 o
415.888 530.661 o
365.959 613.883 o
370.823 623.632 o
369.735 625.394 o
553.45 276.681 o
376.178 613.845 o
373.707 618.777 o
370.032 622.941 o
371.976 622.057 o
538.659 304.665 o
406.014 519.946 o
373.395 609.297 o
386.162 591.018 o
443.952 446.527 o
366.534 601.156 o
346.013 568.421 o
414.197 517.43 o
393.733 573.693 o
353.573 586.093 o
352.196 584.346 o
391.265 578.404 o
365.716 610.828 o
375.106 605.153 o
369.703 623.891 o
370.728 620.541 o
531.866 315.672 o
357.021 598.654 o
384.98 596.155 o
350.588 587.188 o
364.941 616.639 o
299.794 491.949 o
385.162 596.549 o
371.341 622.069 o
316.752 527.954 o
317.852 530.122 o
364.925 615.613 o
383.002 597.767 o
371.327 609.635 o
371.529 619.786 o
414.966 475.709 o
371.753 617.637 o
371.93 616.915 o
370.972 622.259 o
370.482 624.906 o
380.828 571.903 o
220.271 323.348 o
352.8 581.076 o
402.737 525.157 o
374.905 614.648 o
364.207 601.122 o
350.396 588.465 o
123.935 161.772 o
180.049 265.184 o
121.311 156.794 o
153.65 216.546 o
167.022 241.16 o
160.212 228.655 o
394.438 580.191 o
375.576 616.4 o
371.271 624.53 o
373.131 603.414 o
371.757 622.953 o
366.273 593.163 o
122.688 159.409 o
370.571 625.38 o
124.864 163.403 o
371.369 619.909 o
314.252 504.413 o
130.983 174.119 o
368.3 617.613 o
153.444 217.463 o
360.29 610.064 o
361.563 614.127 o
361.293 612.727 o
368.03 621.107 o
366.2 621.772 o
240.423 382.071 o
364.886 614.573 o
365.745 621.291 o
368.903 619.806 o
271.484 438.409 o
365.972 621.625 o
244.901 389.485 o
248.878 397.824 o
265.595 429.803 o
361.909 613.675 o
499.052 363.101 o
280.967 437.039 o
382.53 594.793 o
370.863 586.854 o
372.44 604.092 o
570.147 238.841 o
581.308 220.125 o
139.461 187.602 o
260.701 404.541 o
403.414 414.962 o
465.632 438.982 o
367.759 592.5 o
364.756 597.583 o
339.151 555.036 o
372.136 602.472 o
385.798 588.697 o
139.492 187.028 o
221.275 309.546 o
367.791 453.181 o
321.556 421.104 o
284.731 391.889 o
385.747 576.123 o
383.92 587.827 o
374.047 604.013 o
371.755 622.071 o
376.342 605.565 o
369.701 626.222 o
368.949 626.552 o
366.232 622.092 o
312.634 515.752 o
366.45 623.576 o
373.372 617.817 o
439.111 477.655 o
372.396 621.782 o
371.435 623.949 o
573.65 238.318 o
341.137 573.494 o
391.642 577.521 o
338.466 561.055 o
356.767 571.038 o
541.333 289.947 o
368.843 590.271 o
345.512 564.197 o
401.017 549.281 o
285.744 469.126 o
389.005 570.737 o
349.579 570.673 o
367.82 589.889 o
343.893 560.296 o
298.339 445.673 o
376.941 583.233 o
401.482 357.497 o
342.5 576.281 o
208.061 319.214 o
234.376 368.832 o
354.674 590.965 o
271.645 425.654 o
255.071 397.976 o
347.203 586.151 o
347.652 587.643 o
358.001 606.464 o
327.475 549.36 o
366.735 623.272 o
366.686 624.347 o
365.596 622.307 o
208.046 303.05 o
358.264 592.033 o
392.953 569.63 o
485.697 401.034 o
377.478 602.44 o
369.176 612.193 o
401.09 559.443 o
425.152 514.699 o
217.427 312.165 o
418.823 531.022 o
430.809 507.663 o
379.35 596.428 o
389.491 587.489 o
438.13 416.689 o
361.23 603.22 o
366.344 617.698 o
378.16 603.303 o
379.024 605.807 o
409.099 535.959 o
381.88 599.09 o
389.785 585.127 o
233.035 318.153 o
431.481 503.563 o
428.046 471.331 o
395.447 573.528 o
384.673 583.895 o
342.801 551.791 o
403.536 445.388 o
370.225 609.542 o
392.317 496.087 o
375.349 601.34 o
431.87 429.404 o
332.461 473.447 o
369.513 606.65 o
370.237 610.037 o
417.487 487.803 o
373.914 611.129 o
383.919 551.466 o
357.082 589.051 o
416.011 484.393 o
368.985 612.138 o
426.473 465.346 o
437.099 448.536 o
284.212 421.994 o
366.79 620.515 o
418.369 481.68 o
364.004 614.989 o
418.835 481.154 o
418.071 480.175 o
320.931 489.864 o
370.695 607.445 o
417.619 483.104 o
415.426 479.327 o
364.172 617.034 o
416.968 484.212 o
416.038 484.296 o
414.848 484.466 o
416.033 479.811 o
416.166 483.338 o
416.09 483.636 o
416.979 482.043 o
416.096 481.192 o
416.487 482.234 o
367.864 626.222 o
368.358 627.365 o
416.463 482.284 o
416.465 482.332 o
413.216 481.661 o
241.854 386.022 o
345.476 583.73 o
376.402 441.881 o
345.18 575.298 o
350.442 412.088 o
356.127 417.891 o
359.504 609.704 o
367.514 618.197 o
366.742 620.584 o
366.299 614.952 o
367.933 615.346 o
369.252 621.313 o
368.882 622.489 o
368.152 623.073 o
412.753 530.431 o
372.935 618.635 o
340.125 566.409 o
196.491 297.594 o
152.003 214.262 o
195.792 296.285 o
182.113 270.668 o
382.181 602.874 o
351.381 593.148 o
160.082 229.605 o
370.576 625.545 o
601.989 184.979 o
374.228 613.745 o
372.366 611.825 o
369.441 614.883 o
335.697 559.202 o
234.958 360.116 o
369.633 618.918 o
368.759 620.935 o
150.06 208.7 o
369.823 624.313 o
357.171 602.895 o
319.155 488.378 o
343.791 485.645 o
364.469 613.038 o
365.881 616.528 o
366.64 618.172 o
grestore
0.000 0.000 1.000 setrgbcolor
gsave
558 558 90 90 clipbox
/o {
gsave
newpath
translate
3.5 setlinewidth
1 setlinejoin
0 setlinecap
0 -2.236068 m
0.593012 -2.236068 1.161816 -2.000462 1.581139 -1.581139 c
2.000462 -1.161816 2.236068 -0.593012 2.236068 0 c
2.236068 0.593012 2.000462 1.161816 1.581139 1.581139 c
1.161816 2.000462 0.593012 2.236068 0 2.236068 c
-0.593012 2.236068 -1.161816 2.000462 -1.581139 1.581139 c
-2.000462 1.161816 -2.236068 0.593012 -2.236068 0 c
-2.236068 -0.593012 -2.000462 -1.161816 -1.581139 -1.581139 c
-1.161816 -2.000462 -0.593012 -2.236068 0 -2.236068 c
cl

gsave
0.000 0.000 1.000 setrgbcolor
fill
grestore
stroke
grestore
} bind def
115.506 146.067 o
120.016 154.526 o
115.652 146.341 o
116.08 147.143 o
115.748 146.517 o
115.986 146.945 o
116.433 147.751 o
120.503 155.032 o
115.763 146.523 o
117.496 149.727 o
116.36 147.654 o
122.906 159.635 o
120.929 156.025 o
116.603 148.053 o
151.594 214.295 o
148.02 207.505 o
132.406 174.819 o
115.907 146.807 o
118.173 150.93 o
120.101 154.467 o
115.698 146.418 o
126.592 166.925 o
115.724 146.477 o
117.855 150.503 o
116.12 147.222 o
115.982 146.961 o
116.103 147.165 o
119.009 152.168 o
116.153 147.172 o
136.561 173.348 o
119.297 151.351 o
117.537 148.949 o
115.966 146.763 o
223.523 350.255 o
116.712 148.026 o
116.332 147.52 o
120.755 155.523 o
339.496 565.931 o
140.73 192.732 o
120.944 156.066 o
117.014 148.836 o
137.46 186.645 o
118.532 151.642 o
137.423 186.577 o
119.878 154.266 o
130.822 174.575 o
137.337 186.421 o
115.648 146.328 o
116.063 147.105 o
269.007 326.514 o
269.078 325.889 o
269.031 325.743 o
269.879 327.46 o
341.314 545.26 o
280.689 366.15 o
120.05 154.369 o
420.525 337.504 o
601.25 177.376 o
120.422 153.101 o
115.806 146.518 o
118.172 149.868 o
116.589 148.059 o
115.596 146.225 o
115.576 146.192 o
117.786 150.362 o
115.536 146.122 o
116.143 147.265 o
146.426 203.993 o
123.064 160.227 o
116.113 147.21 o
158.024 225.575 o
116.976 148.812 o
116.279 147.513 o
115.918 146.838 o
115.877 146.761 o
115.744 146.512 o
137.964 188.804 o
127.813 169.241 o
225.276 215.201 o
115.883 146.7 o
129.956 158.177 o
122.233 156.662 o
126.778 163.345 o
146.474 198.162 o
121.599 155.716 o
129.651 167.564 o
137.322 177.329 o
123.889 159.012 o
183.709 262.689 o
123.985 159.134 o
118.164 150.324 o
140.71 188.229 o
128.356 167.177 o
131.063 170.469 o
130.04 171.514 o
401.863 439.608 o
400.16 440.467 o
117.738 149.651 o
117.784 149.769 o
393.396 562.574 o
116.012 146.77 o
116.906 148.013 o
120.267 154.684 o
328.527 546.951 o
219.497 341.587 o
119.656 153.802 o
119.079 152.452 o
124.08 161.247 o
116.24 147.413 o
117.503 149.733 o
133.139 179.099 o
117.542 149.653 o
115.875 146.726 o
121.27 156.704 o
116.415 147.513 o
117.399 149.153 o
115.925 146.717 o
116.744 148.256 o
115.593 146.187 o
115.583 146.17 o
121.752 157.935 o
116.316 147.555 o
139.958 192.105 o
125.442 164.967 o
125.248 164.596 o
128.678 170.719 o
128.392 170.374 o
129.483 172.595 o
116.289 147.548 o
150.049 211.778 o
142.13 196.764 o
119.71 154.074 o
123.904 162.068 o
134.082 181.452 o
122.589 159.563 o
116.068 147.141 o
120.684 155.912 o
135.776 183.915 o
329.356 552.882 o
117.613 150.07 o
115.952 146.917 o
115.678 146.396 o
116.476 147.898 o
155.989 220.591 o
131.135 174.147 o
162.566 231.559 o
119.165 152.779 o
119.781 153.882 o
117.539 149.793 o
167.017 240.18 o
121.191 156.455 o
125.102 163.604 o
118.843 152.166 o
136.759 184.92 o
126.84 166.627 o
117.282 149.305 o
130.095 173.311 o
130.006 172.885 o
117.26 149.321 o
153.508 217.046 o
117.534 149.847 o
129.23 171.624 o
118.552 151.745 o
145.468 201.948 o
286.179 470.071 o
136.593 185.808 o
117.633 150.08 o
206.35 318.368 o
234.302 371.463 o
121.449 157.158 o
226.969 357.521 o
122.518 159.34 o
196.609 299.878 o
119.239 153.136 o
119.523 152.866 o
118.023 150.317 o
117.273 148.777 o
125.624 164.781 o
119.597 153.476 o
118.303 151.146 o
118.046 150.677 o
117.441 149.58 o
123.179 160.342 o
275.102 444.469 o
253.292 404.923 o
155.065 213.365 o
142.307 194.449 o
139.372 189.276 o
131.256 171.305 o
131.805 175.475 o
154.537 206.735 o
132.59 173.417 o
132.69 177.081 o
127.181 164.838 o
130.045 169.364 o
116.429 147.691 o
119.733 153.922 o
115.724 146.462 o
117.002 148.886 o
116.111 147.212 o
115.466 145.992 o
118.116 150.548 o
152.965 212.132 o
137.164 185.58 o
132.529 176.815 o
139.509 189.229 o
132.378 176.205 o
120.768 155.538 o
125.69 164.153 o
128.46 168.401 o
118.426 151.241 o
117.385 149.388 o
153.385 213.841 o
337.513 555.812 o
116.964 148.717 o
126.669 166.52 o
133.146 177.959 o
119.001 152.45 o
122.656 159.19 o
123.693 161.027 o
121.023 156.149 o
157.723 222.995 o
118.826 152.147 o
120.328 154.875 o
169.762 233.949 o
120.907 155.767 o
119.341 152.812 o
206.578 290.078 o
303.127 480.305 o
117.814 150.17 o
131.905 173.451 o
200.171 289.96 o
118.114 150.462 o
119.508 152.779 o
117.723 149.794 o
116.914 148.493 o
118.765 151.618 o
116.885 148.431 o
117.134 148.815 o
117.16 148.863 o
116.601 147.93 o
117.691 149.768 o
117.268 149.044 o
116.45 147.647 o
195.324 297.027 o
135.27 182.774 o
312.95 520.757 o
129.139 171.242 o
119.045 152.681 o
118.288 151.233 o
118.072 150.75 o
120.221 154.891 o
118.903 152.475 o
255.293 407.825 o
140.082 192.775 o
120.66 155.832 o
119.68 153.983 o
119.248 153.083 o
120.38 155.073 o
128.373 169.564 o
116.569 148.01 o
216.524 309.439 o
121.219 155.847 o
300.464 495.149 o
130.316 173.85 o
115.864 146.726 o
116.502 147.741 o
115.638 146.288 o
116.417 147.222 o
140.343 184.975 o
130.032 168.482 o
196.734 288.274 o
124.592 161.016 o
125.803 163.348 o
152.143 209.709 o
174.208 248.426 o
131.285 172.332 o
180.127 259.075 o
121.537 156.181 o
376.251 424.354 o
123.929 160.456 o
165.196 232.178 o
127.232 166.205 o
123.395 158.591 o
126.002 162.533 o
180.23 262.163 o
128.826 169.21 o
121.77 156.789 o
148.582 202.2 o
120.722 155.145 o
146.72 198.845 o
122.389 157.917 o
180.013 255.145 o
128.61 168.463 o
255.691 397.626 o
116.811 148.38 o
141.676 195.752 o
116.511 147.917 o
154.486 214.074 o
136.343 183.5 o
118.001 150.608 o
119.398 152.942 o
137.869 183.707 o
123.34 158.675 o
116.813 148.502 o
124.65 162.791 o
130.587 174.256 o
115.467 145.993 o
115.963 146.788 o
115.597 146.216 o
115.4 145.867 o
117.437 148.356 o
115.788 146.242 o
117.728 150.174 o
121.017 156.09 o
125.016 163.739 o
355.866 601.711 o
356.14 602.166 o
115.954 146.903 o
grestore
2.000 setlinewidth
1 setlinecap
0.000 setgray
gsave
558 558 90 90 clipbox
369 629.042175 m
622.636364 145.8 l
stroke
grestore
gsave
558 558 90 90 clipbox
115.363636 145.8 m
622.636364 145.8 l
stroke
grestore
gsave
558 558 90 90 clipbox
369 629.042175 m
115.363636 145.8 l
stroke
grestore
0.500 setlinewidth
0 setlinecap
[1 3] 0 setdash
0.000 0.000 1.000 setrgbcolor
gsave
558 558 90 90 clipbox
369 629.042175 m
622.636364 145.8 l
stroke
grestore
gsave
558 558 90 90 clipbox
356.318182 604.880067 m
597.272727 145.8 l
stroke
grestore
gsave
558 558 90 90 clipbox
343.636364 580.717958 m
571.909091 145.8 l
stroke
grestore
gsave
558 558 90 90 clipbox
330.954545 556.555849 m
546.545455 145.8 l
stroke
grestore
gsave
558 558 90 90 clipbox
318.272727 532.39374 m
521.181818 145.8 l
stroke
grestore
gsave
558 558 90 90 clipbox
305.590909 508.231631 m
495.818182 145.8 l
stroke
grestore
gsave
558 558 90 90 clipbox
292.909091 484.069523 m
470.454545 145.8 l
stroke
grestore
gsave
558 558 90 90 clipbox
280.227273 459.907414 m
445.090909 145.8 l
stroke
grestore
gsave
558 558 90 90 clipbox
267.545455 435.745305 m
419.727273 145.8 l
stroke
grestore
gsave
558 558 90 90 clipbox
254.863636 411.583196 m
394.363636 145.8 l
stroke
grestore
gsave
558 558 90 90 clipbox
242.181818 387.421088 m
369 145.8 l
stroke
grestore
gsave
558 558 90 90 clipbox
229.5 363.258979 m
343.636364 145.8 l
stroke
grestore
gsave
558 558 90 90 clipbox
216.818182 339.09687 m
318.272727 145.8 l
stroke
grestore
gsave
558 558 90 90 clipbox
204.136364 314.934761 m
292.909091 145.8 l
stroke
grestore
gsave
558 558 90 90 clipbox
191.454545 290.772653 m
267.545455 145.8 l
stroke
grestore
gsave
558 558 90 90 clipbox
178.772727 266.610544 m
242.181818 145.8 l
stroke
grestore
gsave
558 558 90 90 clipbox
166.090909 242.448435 m
216.818182 145.8 l
stroke
grestore
gsave
558 558 90 90 clipbox
153.409091 218.286326 m
191.454545 145.8 l
stroke
grestore
gsave
558 558 90 90 clipbox
140.727273 194.124218 m
166.090909 145.8 l
stroke
grestore
gsave
558 558 90 90 clipbox
128.045455 169.962109 m
140.727273 145.8 l
stroke
grestore
gsave
558 558 90 90 clipbox
115.363636 145.8 m
622.636364 145.8 l
stroke
grestore
gsave
558 558 90 90 clipbox
369 629.042175 m
115.363636 145.8 l
stroke
grestore
gsave
558 558 90 90 clipbox
128.045455 169.962109 m
609.954545 169.962109 l
stroke
grestore
gsave
558 558 90 90 clipbox
381.681818 604.880067 m
140.727273 145.8 l
stroke
grestore
gsave
558 558 90 90 clipbox
140.727273 194.124218 m
597.272727 194.124218 l
stroke
grestore
gsave
558 558 90 90 clipbox
394.363636 580.717958 m
166.090909 145.8 l
stroke
grestore
gsave
558 558 90 90 clipbox
153.409091 218.286326 m
584.590909 218.286326 l
stroke
grestore
gsave
558 558 90 90 clipbox
407.045455 556.555849 m
191.454545 145.8 l
stroke
grestore
gsave
558 558 90 90 clipbox
166.090909 242.448435 m
571.909091 242.448435 l
stroke
grestore
gsave
558 558 90 90 clipbox
419.727273 532.39374 m
216.818182 145.8 l
stroke
grestore
gsave
558 558 90 90 clipbox
178.772727 266.610544 m
559.227273 266.610544 l
stroke
grestore
gsave
558 558 90 90 clipbox
432.409091 508.231631 m
242.181818 145.8 l
stroke
grestore
gsave
558 558 90 90 clipbox
191.454545 290.772653 m
546.545455 290.772653 l
stroke
grestore
gsave
558 558 90 90 clipbox
445.090909 484.069523 m
267.545455 145.8 l
stroke
grestore
gsave
558 558 90 90 clipbox
204.136364 314.934761 m
533.863636 314.934761 l
stroke
grestore
gsave
558 558 90 90 clipbox
457.772727 459.907414 m
292.909091 145.8 l
stroke
grestore
gsave
558 558 90 90 clipbox
216.818182 339.09687 m
521.181818 339.09687 l
stroke
grestore
gsave
558 558 90 90 clipbox
470.454545 435.745305 m
318.272727 145.8 l
stroke
grestore
gsave
558 558 90 90 clipbox
229.5 363.258979 m
508.5 363.258979 l
stroke
grestore
gsave
558 558 90 90 clipbox
483.136364 411.583196 m
343.636364 145.8 l
stroke
grestore
gsave
558 558 90 90 clipbox
242.181818 387.421088 m
495.818182 387.421088 l
stroke
grestore
gsave
558 558 90 90 clipbox
495.818182 387.421088 m
369 145.8 l
stroke
grestore
gsave
558 558 90 90 clipbox
254.863636 411.583196 m
483.136364 411.583196 l
stroke
grestore
gsave
558 558 90 90 clipbox
508.5 363.258979 m
394.363636 145.8 l
stroke
grestore
gsave
558 558 90 90 clipbox
267.545455 435.745305 m
470.454545 435.745305 l
stroke
grestore
gsave
558 558 90 90 clipbox
521.181818 339.09687 m
419.727273 145.8 l
stroke
grestore
gsave
558 558 90 90 clipbox
280.227273 459.907414 m
457.772727 459.907414 l
stroke
grestore
gsave
558 558 90 90 clipbox
533.863636 314.934761 m
445.090909 145.8 l
stroke
grestore
gsave
558 558 90 90 clipbox
292.909091 484.069523 m
445.090909 484.069523 l
stroke
grestore
gsave
558 558 90 90 clipbox
546.545455 290.772653 m
470.454545 145.8 l
stroke
grestore
gsave
558 558 90 90 clipbox
305.590909 508.231631 m
432.409091 508.231631 l
stroke
grestore
gsave
558 558 90 90 clipbox
559.227273 266.610544 m
495.818182 145.8 l
stroke
grestore
gsave
558 558 90 90 clipbox
318.272727 532.39374 m
419.727273 532.39374 l
stroke
grestore
gsave
558 558 90 90 clipbox
571.909091 242.448435 m
521.181818 145.8 l
stroke
grestore
gsave
558 558 90 90 clipbox
330.954545 556.555849 m
407.045455 556.555849 l
stroke
grestore
gsave
558 558 90 90 clipbox
584.590909 218.286326 m
546.545455 145.8 l
stroke
grestore
gsave
558 558 90 90 clipbox
343.636364 580.717958 m
394.363636 580.717958 l
stroke
grestore
gsave
558 558 90 90 clipbox
597.272727 194.124218 m
571.909091 145.8 l
stroke
grestore
gsave
558 558 90 90 clipbox
356.318182 604.880067 m
381.681818 604.880067 l
stroke
grestore
gsave
558 558 90 90 clipbox
609.954545 169.962109 m
597.272727 145.8 l
stroke
grestore
gsave
558 558 90 90 clipbox
369 629.042175 m
369 629.042175 l
stroke
grestore
gsave
558 558 90 90 clipbox
622.636364 145.8 m
622.636364 145.8 l
stroke
grestore
3.000 setlinewidth
[6 6] 0 setdash
0.647 0.165 0.165 setrgbcolor
gsave
558 558 90 90 clipbox
369 306.880725 m
242.181818 387.421088 l
stroke
grestore
gsave
558 558 90 90 clipbox
369 306.880725 m
369 145.8 l
stroke
grestore
gsave
558 558 90 90 clipbox
369 306.880725 m
495.818182 387.421088 l
stroke
grestore
1.000 setlinewidth
1 setlinecap
[] 0 setdash
0.000 setgray
gsave
558 558 90 90 clipbox
622.636364 145.8 m
627.709091 145.8 l
stroke
grestore
gsave
558 558 90 90 clipbox
597.272727 194.124218 m
602.345455 194.124218 l
stroke
grestore
gsave
558 558 90 90 clipbox
571.909091 242.448435 m
576.981818 242.448435 l
stroke
grestore
gsave
558 558 90 90 clipbox
546.545455 290.772653 m
551.618182 290.772653 l
stroke
grestore
gsave
558 558 90 90 clipbox
521.181818 339.09687 m
526.254545 339.09687 l
stroke
grestore
gsave
558 558 90 90 clipbox
495.818182 387.421088 m
500.890909 387.421088 l
stroke
grestore
gsave
558 558 90 90 clipbox
470.454545 435.745305 m
475.527273 435.745305 l
stroke
grestore
gsave
558 558 90 90 clipbox
445.090909 484.069523 m
450.163636 484.069523 l
stroke
grestore
gsave
558 558 90 90 clipbox
419.727273 532.39374 m
424.8 532.39374 l
stroke
grestore
gsave
558 558 90 90 clipbox
394.363636 580.717958 m
399.436364 580.717958 l
stroke
grestore
gsave
558 558 90 90 clipbox
369 629.042175 m
374.072727 629.042175 l
stroke
grestore
gsave
558 558 90 90 clipbox
115.363636 145.8 m
112.827273 150.632422 l
stroke
grestore
gsave
558 558 90 90 clipbox
140.727273 194.124218 m
138.190909 198.956639 l
stroke
grestore
gsave
558 558 90 90 clipbox
166.090909 242.448435 m
163.554545 247.280857 l
stroke
grestore
gsave
558 558 90 90 clipbox
191.454545 290.772653 m
188.918182 295.605074 l
stroke
grestore
gsave
558 558 90 90 clipbox
216.818182 339.09687 m
214.281818 343.929292 l
stroke
grestore
gsave
558 558 90 90 clipbox
242.181818 387.421088 m
239.645455 392.253509 l
stroke
grestore
gsave
558 558 90 90 clipbox
267.545455 435.745305 m
265.009091 440.577727 l
stroke
grestore
gsave
558 558 90 90 clipbox
292.909091 484.069523 m
290.372727 488.901944 l
stroke
grestore
gsave
558 558 90 90 clipbox
318.272727 532.39374 m
315.736364 537.226162 l
stroke
grestore
gsave
558 558 90 90 clipbox
343.636364 580.717958 m
341.1 585.55038 l
stroke
grestore
gsave
558 558 90 90 clipbox
369 629.042175 m
366.463636 633.874597 l
stroke
grestore
gsave
558 558 90 90 clipbox
115.363636 145.8 m
112.827273 140.967578 l
stroke
grestore
gsave
558 558 90 90 clipbox
166.090909 145.8 m
163.554545 140.967578 l
stroke
grestore
gsave
558 558 90 90 clipbox
216.818182 145.8 m
214.281818 140.967578 l
stroke
grestore
gsave
558 558 90 90 clipbox
267.545455 145.8 m
265.009091 140.967578 l
stroke
grestore
gsave
558 558 90 90 clipbox
318.272727 145.8 m
315.736364 140.967578 l
stroke
grestore
gsave
558 558 90 90 clipbox
369 145.8 m
366.463636 140.967578 l
stroke
grestore
gsave
558 558 90 90 clipbox
419.727273 145.8 m
417.190909 140.967578 l
stroke
grestore
gsave
558 558 90 90 clipbox
470.454545 145.8 m
467.918182 140.967578 l
stroke
grestore
gsave
558 558 90 90 clipbox
521.181818 145.8 m
518.645455 140.967578 l
stroke
grestore
gsave
558 558 90 90 clipbox
571.909091 145.8 m
569.372727 140.967578 l
stroke
grestore
gsave
558 558 90 90 clipbox
622.636364 145.8 m
620.1 140.967578 l
stroke
grestore
1.250 setlinewidth
0 setlinejoin
2 setlinecap
0.150 setgray
gsave
90 648 m
648 648 l
stroke
grestore
gsave
648 90 m
648 648 l
stroke
grestore
gsave
90 90 m
648 90 l
stroke
grestore
gsave
90 90 m
90 648 l
stroke
grestore
0.000 setgray
/LiberationSans findfont
10.000 scalefont
setfont
gsave
627.604148 143.383789 translate
0.000000 rotate
0.000000 0.000000 m /zero glyphshow
5.561523 0.000000 m /period glyphshow
8.339844 0.000000 m /zero glyphshow
grestore
gsave
602.240511 191.708007 translate
0.000000 rotate
0.000000 0.000000 m /zero glyphshow
5.561523 0.000000 m /period glyphshow
8.339844 0.000000 m /one glyphshow
grestore
gsave
576.876875 240.032224 translate
0.000000 rotate
0.000000 0.000000 m /zero glyphshow
5.561523 0.000000 m /period glyphshow
8.339844 0.000000 m /two glyphshow
grestore
gsave
551.513239 288.356442 translate
0.000000 rotate
0.000000 0.000000 m /zero glyphshow
5.561523 0.000000 m /period glyphshow
8.339844 0.000000 m /three glyphshow
grestore
gsave
526.149602 336.680659 translate
0.000000 rotate
0.000000 0.000000 m /zero glyphshow
5.561523 0.000000 m /period glyphshow
8.339844 0.000000 m /four glyphshow
grestore
gsave
500.785966 385.004877 translate
0.000000 rotate
0.000000 0.000000 m /zero glyphshow
5.561523 0.000000 m /period glyphshow
8.339844 0.000000 m /five glyphshow
grestore
gsave
475.422330 433.329094 translate
0.000000 rotate
0.000000 0.000000 m /zero glyphshow
5.561523 0.000000 m /period glyphshow
8.339844 0.000000 m /six glyphshow
grestore
gsave
450.058693 481.653312 translate
0.000000 rotate
0.000000 0.000000 m /zero glyphshow
5.561523 0.000000 m /period glyphshow
8.339844 0.000000 m /seven glyphshow
grestore
gsave
424.695057 529.977529 translate
0.000000 rotate
0.000000 0.000000 m /zero glyphshow
5.561523 0.000000 m /period glyphshow
8.339844 0.000000 m /eight glyphshow
grestore
gsave
399.331420 578.301747 translate
0.000000 rotate
0.000000 0.000000 m /zero glyphshow
5.561523 0.000000 m /period glyphshow
8.339844 0.000000 m /nine glyphshow
grestore
gsave
373.967784 626.625964 translate
0.000000 rotate
0.000000 0.000000 m /one glyphshow
5.561523 0.000000 m /period glyphshow
8.339844 0.000000 m /zero glyphshow
grestore
gsave
102.069602 153.048633 translate
0.000000 rotate
0.000000 0.000000 m /one glyphshow
5.561523 0.000000 m /period glyphshow
8.339844 0.000000 m /zero glyphshow
grestore
gsave
127.433239 201.372850 translate
0.000000 rotate
0.000000 0.000000 m /zero glyphshow
5.561523 0.000000 m /period glyphshow
8.339844 0.000000 m /nine glyphshow
grestore
gsave
152.796875 249.697068 translate
0.000000 rotate
0.000000 0.000000 m /zero glyphshow
5.561523 0.000000 m /period glyphshow
8.339844 0.000000 m /eight glyphshow
grestore
gsave
178.160511 298.021285 translate
0.000000 rotate
0.000000 0.000000 m /zero glyphshow
5.561523 0.000000 m /period glyphshow
8.339844 0.000000 m /seven glyphshow
grestore
gsave
203.524148 346.345503 translate
0.000000 rotate
0.000000 0.000000 m /zero glyphshow
5.561523 0.000000 m /period glyphshow
8.339844 0.000000 m /six glyphshow
grestore
gsave
228.887784 394.669720 translate
0.000000 rotate
0.000000 0.000000 m /zero glyphshow
5.561523 0.000000 m /period glyphshow
8.339844 0.000000 m /five glyphshow
grestore
gsave
254.251420 442.993938 translate
0.000000 rotate
0.000000 0.000000 m /zero glyphshow
5.561523 0.000000 m /period glyphshow
8.339844 0.000000 m /four glyphshow
grestore
gsave
279.615057 491.318155 translate
0.000000 rotate
0.000000 0.000000 m /zero glyphshow
5.561523 0.000000 m /period glyphshow
8.339844 0.000000 m /three glyphshow
grestore
gsave
304.978693 539.642373 translate
0.000000 rotate
0.000000 0.000000 m /zero glyphshow
5.561523 0.000000 m /period glyphshow
8.339844 0.000000 m /two glyphshow
grestore
gsave
330.342330 587.966590 translate
0.000000 rotate
0.000000 0.000000 m /zero glyphshow
5.561523 0.000000 m /period glyphshow
8.339844 0.000000 m /one glyphshow
grestore
gsave
355.705966 636.290808 translate
0.000000 rotate
0.000000 0.000000 m /zero glyphshow
5.561523 0.000000 m /period glyphshow
8.339844 0.000000 m /zero glyphshow
grestore
gsave
102.069602 128.886524 translate
0.000000 rotate
0.000000 0.000000 m /zero glyphshow
5.561523 0.000000 m /period glyphshow
8.339844 0.000000 m /zero glyphshow
grestore
gsave
152.796875 128.886524 translate
0.000000 rotate
0.000000 0.000000 m /zero glyphshow
5.561523 0.000000 m /period glyphshow
8.339844 0.000000 m /one glyphshow
grestore
gsave
203.524148 128.886524 translate
0.000000 rotate
0.000000 0.000000 m /zero glyphshow
5.561523 0.000000 m /period glyphshow
8.339844 0.000000 m /two glyphshow
grestore
gsave
254.251420 128.886524 translate
0.000000 rotate
0.000000 0.000000 m /zero glyphshow
5.561523 0.000000 m /period glyphshow
8.339844 0.000000 m /three glyphshow
grestore
gsave
304.978693 128.886524 translate
0.000000 rotate
0.000000 0.000000 m /zero glyphshow
5.561523 0.000000 m /period glyphshow
8.339844 0.000000 m /four glyphshow
grestore
gsave
355.705966 128.886524 translate
0.000000 rotate
0.000000 0.000000 m /zero glyphshow
5.561523 0.000000 m /period glyphshow
8.339844 0.000000 m /five glyphshow
grestore
gsave
406.433239 128.886524 translate
0.000000 rotate
0.000000 0.000000 m /zero glyphshow
5.561523 0.000000 m /period glyphshow
8.339844 0.000000 m /six glyphshow
grestore
gsave
457.160511 128.886524 translate
0.000000 rotate
0.000000 0.000000 m /zero glyphshow
5.561523 0.000000 m /period glyphshow
8.339844 0.000000 m /seven glyphshow
grestore
gsave
507.887784 128.886524 translate
0.000000 rotate
0.000000 0.000000 m /zero glyphshow
5.561523 0.000000 m /period glyphshow
8.339844 0.000000 m /eight glyphshow
grestore
gsave
558.615057 128.886524 translate
0.000000 rotate
0.000000 0.000000 m /zero glyphshow
5.561523 0.000000 m /period glyphshow
8.339844 0.000000 m /nine glyphshow
grestore
gsave
609.342330 128.886524 translate
0.000000 rotate
0.000000 0.000000 m /one glyphshow
5.561523 0.000000 m /period glyphshow
8.339844 0.000000 m /zero glyphshow
grestore
0.647 0.165 0.165 setrgbcolor
gsave
520.360236 389.242504 translate
297.693359 rotate
/Cmmi10 findfont
20.0 scalefont
setfont
0.000000 0.156250 moveto
/mu glyphshow

/Cmr10 findfont
14.0 scalefont
setfont
12.041016 -3.245000 moveto
/two glyphshow


grestore
gsave
207.880236 370.648106 translate
62.306641 rotate
/Cmmi10 findfont
20.0 scalefont
setfont
0.000000 0.156250 moveto
/mu glyphshow

/Cmr10 findfont
14.0 scalefont
setfont
12.041016 -3.245000 moveto
/three glyphshow


grestore
gsave
364.080000 99.664844 translate
0.000000 rotate
/Cmmi10 findfont
20.0 scalefont
setfont
0.000000 0.156250 moveto
/mu glyphshow

/Cmr10 findfont
14.0 scalefont
setfont
12.041016 -3.245000 moveto
/one glyphshow


grestore
3.500 setlinewidth
1 setlinejoin
0 setlinecap
1.000 0.000 0.000 setrgbcolor
gsave
564.842057 632.138932 m
569.314193 632.138932 l
569.314193 636.611068 l
564.842057 636.611068 l
cl
gsave
fill
grestore
stroke
grestore
gsave
564.842057 632.138932 m
569.314193 632.138932 l
569.314193 636.611068 l
564.842057 636.611068 l
cl
gsave
fill
grestore
stroke
grestore
gsave
564.842057 632.138932 m
569.314193 632.138932 l
569.314193 636.611068 l
564.842057 636.611068 l
cl
gsave
fill
grestore
stroke
grestore
0.150 setgray
gsave
585.078125 631.750000 translate
0.000000 rotate
0.000000 0.000000 m /d glyphshow
5.561523 0.000000 m /i glyphshow
7.783203 0.000000 m /m glyphshow
16.113281 0.000000 m /e glyphshow
21.674805 0.000000 m /n glyphshow
27.236328 0.000000 m /s glyphshow
32.236328 0.000000 m /i glyphshow
34.458008 0.000000 m /o glyphshow
40.019531 0.000000 m /n glyphshow
45.581055 0.000000 m /uni00A0 glyphshow
48.359375 0.000000 m /one glyphshow
grestore
0.000 0.502 0.000 setrgbcolor
gsave
567.078125 616.884597 m
570.240403 620.046875 l
567.078125 623.209153 l
563.915847 620.046875 l
cl
gsave
fill
grestore
stroke
grestore
gsave
567.078125 616.884597 m
570.240403 620.046875 l
567.078125 623.209153 l
563.915847 620.046875 l
cl
gsave
fill
grestore
stroke
grestore
gsave
567.078125 616.884597 m
570.240403 620.046875 l
567.078125 623.209153 l
563.915847 620.046875 l
cl
gsave
fill
grestore
stroke
grestore
0.150 setgray
gsave
585.078125 617.421875 translate
0.000000 rotate
0.000000 0.000000 m /d glyphshow
5.561523 0.000000 m /i glyphshow
7.783203 0.000000 m /m glyphshow
16.113281 0.000000 m /e glyphshow
21.674805 0.000000 m /n glyphshow
27.236328 0.000000 m /s glyphshow
32.236328 0.000000 m /i glyphshow
34.458008 0.000000 m /o glyphshow
40.019531 0.000000 m /n glyphshow
45.581055 0.000000 m /uni00A0 glyphshow
48.359375 0.000000 m /two glyphshow
grestore
0.000 0.000 1.000 setrgbcolor
gsave
567.078125 603.482682 m
567.671137 603.482682 568.239941 603.718288 568.659264 604.137611 c
569.078587 604.556934 569.314193 605.125738 569.314193 605.71875 c
569.314193 606.311762 569.078587 606.880566 568.659264 607.299889 c
568.239941 607.719212 567.671137 607.954818 567.078125 607.954818 c
566.485113 607.954818 565.916309 607.719212 565.496986 607.299889 c
565.077663 606.880566 564.842057 606.311762 564.842057 605.71875 c
564.842057 605.125738 565.077663 604.556934 565.496986 604.137611 c
565.916309 603.718288 566.485113 603.482682 567.078125 603.482682 c
cl
gsave
fill
grestore
stroke
grestore
gsave
567.078125 603.482682 m
567.671137 603.482682 568.239941 603.718288 568.659264 604.137611 c
569.078587 604.556934 569.314193 605.125738 569.314193 605.71875 c
569.314193 606.311762 569.078587 606.880566 568.659264 607.299889 c
568.239941 607.719212 567.671137 607.954818 567.078125 607.954818 c
566.485113 607.954818 565.916309 607.719212 565.496986 607.299889 c
565.077663 606.880566 564.842057 606.311762 564.842057 605.71875 c
564.842057 605.125738 565.077663 604.556934 565.496986 604.137611 c
565.916309 603.718288 566.485113 603.482682 567.078125 603.482682 c
cl
gsave
fill
grestore
stroke
grestore
gsave
567.078125 603.482682 m
567.671137 603.482682 568.239941 603.718288 568.659264 604.137611 c
569.078587 604.556934 569.314193 605.125738 569.314193 605.71875 c
569.314193 606.311762 569.078587 606.880566 568.659264 607.299889 c
568.239941 607.719212 567.671137 607.954818 567.078125 607.954818 c
566.485113 607.954818 565.916309 607.719212 565.496986 607.299889 c
565.077663 606.880566 564.842057 606.311762 564.842057 605.71875 c
564.842057 605.125738 565.077663 604.556934 565.496986 604.137611 c
565.916309 603.718288 566.485113 603.482682 567.078125 603.482682 c
cl
gsave
fill
grestore
stroke
grestore
0.150 setgray
gsave
585.078125 603.093750 translate
0.000000 rotate
0.000000 0.000000 m /d glyphshow
5.561523 0.000000 m /i glyphshow
7.783203 0.000000 m /m glyphshow
16.113281 0.000000 m /e glyphshow
21.674805 0.000000 m /n glyphshow
27.236328 0.000000 m /s glyphshow
32.236328 0.000000 m /i glyphshow
34.458008 0.000000 m /o glyphshow
40.019531 0.000000 m /n glyphshow
45.581055 0.000000 m /uni00A0 glyphshow
48.359375 0.000000 m /three glyphshow
grestore

end
showpage
