%!PS-Adobe-3.0 EPSF-3.0
%%Title: ../figures/SyntheticExperiments/param-acc-theta.eps
%%Creator: matplotlib version 1.5.3, http://matplotlib.org/
%%CreationDate: Sun Jan  8 16:01:23 2017
%%Orientation: portrait
%%BoundingBox: 162 288 450 504
%%EndComments
%%BeginProlog
/mpldict 11 dict def
mpldict begin
/m { moveto } bind def
/l { lineto } bind def
/r { rlineto } bind def
/c { curveto } bind def
/cl { closepath } bind def
/box {
m
1 index 0 r
0 exch r
neg 0 r
cl
} bind def
/clipbox {
box
clip
newpath
} bind def
%!PS-Adobe-3.0 Resource-Font
%%Title: cmmi10
%%Copyright: Copyright (C) 1994, Basil K. Malyshev. All Rights Reserved.012BaKoMa Fonts Collection, Level-B.
%%Creator: Converted from TrueType to type 3 by PPR
25 dict begin
/_d{bind def}bind def
/_m{moveto}_d
/_l{lineto}_d
/_cl{closepath eofill}_d
/_c{curveto}_d
/_sc{7 -1 roll{setcachedevice}{pop pop pop pop pop pop}ifelse}_d
/_e{exec}_d
/FontName /Cmmi10 def
/PaintType 0 def
/FontMatrix[.001 0 0 .001 0 0]def
/FontBBox[-34 -250 1048 750]def
/FontType 3 def
/Encoding [ /theta /epsilon1 ] def
/FontInfo 10 dict dup begin
/FamilyName (cmmi10) def
/FullName (cmmi10) def
/Notice (Copyright (C) 1994, Basil K. Malyshev. All Rights Reserved.012BaKoMa Fonts Collection, Level-B. ) def
/Weight (Regular) def
/Version (1.1/12-Nov-94) def
/ItalicAngle 0.0 def
/isFixedPitch false def
/UnderlinePosition -133 def
/UnderlineThickness 20 def
end readonly def
/CharStrings 2 dict dup begin
/theta{{469 0 40 -10 457 705 _sc
161 -10 _m
131 -10 106 0 88 22 _c
70 44 57 70 50 102 _c
43 133 40 164 40 195 _c
40 196 _l
40 229 43 263 49 299 _c
55 335 65 370 77 406 _c
89 442 102 474 116 502 _c
126 521 138 543 154 567 _c
169 591 186 614 205 635 _c
224 656 245 673 267 686 _c
289 698 311 705 334 705 _c
335 705 _l
359 705 379 698 395 685 _c
}_e{411 671 423 654 432 634 _c
441 613 447 591 451 567 _c
455 543 457 520 457 499 _c
457 448 450 396 436 344 _c
422 292 404 241 380 192 _c
370 173 358 151 342 126 _c
326 101 309 79 291 59 _c
273 39 252 22 230 9 _c
207 -3 184 -10 162 -10 _c
161 -10 _l
163 15 _m
185 15 206 26 226 50 _c
246 74 264 102 280 136 _c
295 170 308 204 320 240 _c
332 275 340 305 346 330 _c
}_e{142 330 _l
131 288 123 251 117 221 _c
111 191 109 161 109 132 _c
109 54 127 15 163 15 _c
150 365 _m
355 365 _l
362 394 368 418 372 438 _c
376 458 379 479 382 501 _c
385 523 387 543 387 562 _c
387 640 369 679 334 679 _c
292 679 255 645 224 577 _c
193 509 168 438 150 365 _c
_cl}_e}_d
/epsilon1{{405 0 45 -10 378 431 _sc
123 141 _m
123 118 127 97 135 78 _c
143 59 155 44 172 32 _c
188 20 208 15 230 15 _c
244 15 260 18 277 25 _c
294 31 310 38 325 46 _c
339 54 347 58 347 58 _c
351 58 354 56 356 52 _c
358 48 359 44 359 40 _c
359 36 358 34 356 33 _c
314 4 271 -10 229 -10 _c
193 -10 161 -2 133 14 _c
105 30 83 52 68 82 _c
}_e{52 111 45 143 45 178 _c
45 212 52 245 66 276 _c
80 307 99 334 124 358 _c
148 381 176 399 208 412 _c
239 424 272 431 306 431 _c
363 431 _l
373 431 378 426 378 416 _c
378 410 376 406 372 402 _c
368 398 364 396 359 396 _c
304 396 _l
277 396 253 390 231 378 _c
209 366 191 350 177 329 _c
162 308 151 285 143 259 _c
320 259 _l
324 259 328 257 331 254 _c
}_e{333 251 335 248 335 244 _c
335 238 333 234 329 230 _c
325 226 321 224 316 224 _c
134 224 _l
126 189 123 161 123 141 _c
_cl}_e}_d
end readonly def

/BuildGlyph
 {exch begin
 CharStrings exch
 2 copy known not{pop /.notdef}if
 true 3 1 roll get exec
 end}_d

/BuildChar {
 1 index /Encoding get exch get
 1 index /BuildGlyph get exec
}_d

FontName currentdict end definefont pop
%!PS-Adobe-3.0 Resource-Font
%%Title: cmsy10
%%Copyright: Copyright (C) 1994, Basil K. Malyshev. All Rights Reserved.012BaKoMa Fonts Collection, Level-B.
%%Creator: Converted from TrueType to type 3 by PPR
25 dict begin
/_d{bind def}bind def
/_m{moveto}_d
/_l{lineto}_d
/_cl{closepath eofill}_d
/_c{curveto}_d
/_sc{7 -1 roll{setcachedevice}{pop pop pop pop pop pop}ifelse}_d
/_e{exec}_d
/FontName /Cmsy10 def
/PaintType 0 def
/FontMatrix[.001 0 0 .001 0 0]def
/FontBBox[-29 -960 1123 779]def
/FontType 3 def
/Encoding [ /asteriskmath ] def
/FontInfo 10 dict dup begin
/FamilyName (cmsy10) def
/FullName (cmsy10) def
/Notice (Copyright (C) 1994, Basil K. Malyshev. All Rights Reserved.012BaKoMa Fonts Collection, Level-B. ) def
/Weight (Regular) def
/Version (1.1/12-Nov-94) def
/ItalicAngle 0.0 def
/isFixedPitch false def
/UnderlinePosition -133 def
/UnderlineThickness 20 def
end readonly def
/CharStrings 1 dict dup begin
/asteriskmath{{500 0 65 34 434 465 _sc
94 127 _m
86 127 80 130 74 136 _c
68 142 65 149 65 157 _c
65 168 69 176 79 181 _c
223 250 _l
79 318 _l
69 322 65 330 65 342 _c
65 349 68 356 74 362 _c
80 368 86 372 94 372 _c
99 372 104 370 108 367 _c
236 274 _l
221 437 _l
221 445 223 451 229 457 _c
235 462 242 465 250 465 _c
258 465 264 462 270 457 _c
275 452 278 446 278 439 _c
}_e{278 437 _l
263 274 _l
391 367 _l
395 370 399 372 405 372 _c
413 372 419 368 425 362 _c
431 356 434 349 434 342 _c
434 330 429 322 420 318 _c
276 250 _l
420 181 _l
429 176 434 168 434 157 _c
434 149 431 142 425 136 _c
419 130 413 127 405 127 _c
399 127 395 128 391 132 _c
263 225 _l
278 63 _l
278 60 _l
278 52 275 46 269 41 _c
263 36 257 34 250 34 _c
}_e{242 34 235 36 229 42 _c
223 47 221 54 221 62 _c
236 225 _l
108 132 _l
104 128 99 127 94 127 _c
_cl}_e}_d
end readonly def

/BuildGlyph
 {exch begin
 CharStrings exch
 2 copy known not{pop /.notdef}if
 true 3 1 roll get exec
 end}_d

/BuildChar {
 1 index /Encoding get exch get
 1 index /BuildGlyph get exec
}_d

FontName currentdict end definefont pop
%!PS-Adobe-3.0 Resource-Font
%%Title: cmr10
%%Copyright: Copyright (C) 1994, Basil K. Malyshev. All Rights Reserved.012BaKoMa Fonts Collection, Level-B.
%%Creator: Converted from TrueType to type 3 by PPR
25 dict begin
/_d{bind def}bind def
/_m{moveto}_d
/_l{lineto}_d
/_cl{closepath eofill}_d
/_c{curveto}_d
/_sc{7 -1 roll{setcachedevice}{pop pop pop pop pop pop}ifelse}_d
/_e{exec}_d
/FontName /Cmr10 def
/PaintType 0 def
/FontMatrix[.001 0 0 .001 0 0]def
/FontBBox[-44 -250 1009 750]def
/FontType 3 def
/Encoding [ /parenright /parenleft ] def
/FontInfo 10 dict dup begin
/FamilyName (cmr10) def
/FullName (cmr10) def
/Notice (Copyright (C) 1994, Basil K. Malyshev. All Rights Reserved.012BaKoMa Fonts Collection, Level-B. ) def
/Weight (Regular) def
/Version (1.1/12-Nov-94) def
/ItalicAngle 0.0 def
/isFixedPitch false def
/UnderlinePosition -133 def
/UnderlineThickness 20 def
end readonly def
/CharStrings 2 dict dup begin
/parenright{{388 0 56 -249 291 750 _sc
65 -249 _m
59 -249 56 -246 56 -240 _c
56 -237 56 -235 58 -234 _c
172 -122 229 38 229 250 _c
229 462 172 623 60 733 _c
57 734 56 737 56 741 _c
56 743 57 745 59 747 _c
61 749 63 750 65 750 _c
74 750 _l
76 750 77 749 79 748 _c
127 710 167 664 199 610 _c
231 556 254 498 269 437 _c
283 376 291 314 291 250 _c
291 202 287 156 279 110 _c
}_e{271 64 258 20 241 -24 _c
223 -68 201 -108 175 -146 _c
148 -184 116 -217 79 -247 _c
77 -248 76 -249 74 -249 _c
65 -249 _l
_cl}_e}_d
/parenleft{{388 0 97 -249 332 750 _sc
310 -247 _m
272 -217 240 -184 214 -146 _c
187 -108 165 -67 148 -25 _c
131 17 118 62 110 109 _c
101 155 97 202 97 250 _c
97 298 101 345 110 392 _c
118 438 131 483 149 527 _c
166 570 188 611 215 649 _c
242 687 274 720 310 748 _c
310 749 311 750 315 750 _c
324 750 _l
326 750 327 749 329 747 _c
331 745 332 743 332 741 _c
332 738 331 736 330 735 _c
}_e{297 703 270 668 248 632 _c
226 596 209 557 196 516 _c
183 474 174 432 168 388 _c
162 344 159 298 159 250 _c
159 38 215 -122 329 -232 _c
331 -234 332 -236 332 -240 _c
332 -242 331 -244 329 -246 _c
327 -248 326 -249 324 -249 _c
315 -249 _l
311 -249 310 -248 310 -247 _c
_cl}_e}_d
end readonly def

/BuildGlyph
 {exch begin
 CharStrings exch
 2 copy known not{pop /.notdef}if
 true 3 1 roll get exec
 end}_d

/BuildChar {
 1 index /Encoding get exch get
 1 index /BuildGlyph get exec
}_d

FontName currentdict end definefont pop
%!PS-Adobe-3.0 Resource-Font
%%Title: Liberation Sans
%%Copyright: Copyright (c) 2007 Red Hat, Inc. All rights reserved. LIBERATION is a trademark of Red Hat, Inc.
%%Creator: Converted from TrueType to type 3 by PPR
25 dict begin
/_d{bind def}bind def
/_m{moveto}_d
/_l{lineto}_d
/_cl{closepath eofill}_d
/_c{curveto}_d
/_sc{7 -1 roll{setcachedevice}{pop pop pop pop pop pop}ifelse}_d
/_e{exec}_d
/FontName /LiberationSans def
/PaintType 0 def
/FontMatrix[.001 0 0 .001 0 0]def
/FontBBox[-203 -303 1050 910]def
/FontType 3 def
/Encoding [ /uni00A0 /numbersign /period /zero /one /two /four /five /six /eight /e /f /n /o /s /t /v /w ] def
/FontInfo 10 dict dup begin
/FamilyName (Liberation Sans) def
/FullName (Liberation Sans) def
/Notice (Copyright (c) 2007 Red Hat, Inc. All rights reserved. LIBERATION is a trademark of Red Hat, Inc. Liberation is a trademark of Red Hat, Inc. registered in U.S. Patent and Trademark Office and certain other jurisdictions.) def
/Weight (Regular) def
/Version (Version 1.07.3) def
/ItalicAngle 0.0 def
/isFixedPitch false def
/UnderlinePosition -217 def
/UnderlineThickness 150 def
end readonly def
/CharStrings 18 dict dup begin
/uni00A0{278 0 0 0 0 0 _sc
}_d
/numbersign{{556 0 4 0 551 684 _sc
438 432 _m
399 252 _l
526 252 _l
526 199 _l
388 199 _l
345 0 _l
292 0 _l
333 199 _l
156 199 _l
115 0 _l
62 0 _l
103 199 _l
4 199 _l
4 252 _l
114 252 _l
152 432 _l
29 432 _l
29 485 _l
163 485 _l
207 684 _l
260 684 _l
217 485 _l
395 485 _l
438 684 _l
491 684 _l
448 485 _l
551 485 _l
551 432 _l
438 432 _l
208 432 _m
}_e{168 252 _l
345 252 _l
383 432 _l
208 432 _l
_cl}_e}_d
/period{278 0 91 0 187 107 _sc
91 0 _m
91 107 _l
187 107 _l
187 0 _l
91 0 _l
_cl}_d
/zero{{556 0 39 -9 517 698 _sc
517 344 _m
517 278 510 222 498 177 _c
485 132 468 96 447 68 _c
425 40 400 20 371 8 _c
341 -3 310 -9 277 -9 _c
243 -9 212 -3 183 8 _c
154 20 129 39 108 67 _c
86 95 69 131 57 177 _c
45 222 39 278 39 344 _c
39 413 45 470 57 516 _c
69 561 86 597 108 625 _c
129 652 154 671 184 682 _c
213 692 245 698 280 698 _c
}_e{312 698 343 692 372 682 _c
401 671 426 652 448 625 _c
469 597 486 561 498 516 _c
510 470 517 413 517 344 _c
428 344 _m
428 398 424 444 418 480 _c
411 516 401 545 389 567 _c
376 589 360 604 342 613 _c
324 622 303 627 280 627 _c
255 627 233 622 214 613 _c
195 604 179 589 166 567 _c
153 545 143 516 137 480 _c
131 444 128 398 128 344 _c
128 291 131 247 138 211 _c
}_e{144 175 154 146 167 124 _c
180 102 196 86 214 76 _c
232 66 254 62 278 62 _c
301 62 322 66 340 76 _c
358 86 374 102 387 124 _c
400 146 410 175 417 211 _c
424 247 428 291 428 344 _c
_cl}_e}_d
/one{556 0 76 0 507 688 _sc
76 0 _m
76 75 _l
251 75 _l
251 604 _l
96 493 _l
96 576 _l
259 688 _l
340 688 _l
340 75 _l
507 75 _l
507 0 _l
76 0 _l
_cl}_d
/two{{556 0 50 0 506 698 _sc
50 0 _m
50 62 _l
66 100 87 133 111 163 _c
135 192 160 218 186 242 _c
212 265 239 287 265 307 _c
291 327 314 348 335 368 _c
355 388 372 409 385 431 _c
398 453 405 479 405 507 _c
405 526 402 543 396 558 _c
390 573 381 586 370 596 _c
359 606 346 613 331 618 _c
315 623 298 626 279 626 _c
261 626 245 623 230 618 _c
214 613 200 606 188 596 _c
}_e{176 586 166 574 158 560 _c
150 546 146 529 144 510 _c
54 518 _l
57 542 64 566 75 588 _c
85 610 100 629 119 645 _c
137 661 160 674 187 684 _c
213 693 244 698 279 698 _c
313 698 344 694 371 686 _c
397 678 420 666 438 650 _c
456 634 470 614 480 591 _c
490 567 495 540 495 510 _c
495 486 490 464 482 444 _c
474 423 463 403 449 384 _c
435 365 419 347 401 329 _c
}_e{383 311 364 294 344 278 _c
324 261 304 244 284 228 _c
264 212 245 195 227 179 _c
209 162 194 145 180 128 _c
166 111 155 93 147 75 _c
506 75 _l
506 0 _l
50 0 _l
_cl}_e}_d
/four{556 0 23 0 527 688 _sc
430 156 _m
430 0 _l
347 0 _l
347 156 _l
23 156 _l
23 224 _l
338 688 _l
430 688 _l
430 225 _l
527 225 _l
527 156 _l
430 156 _l
347 589 _m
346 587 344 583 342 579 _c
339 574 336 569 333 563 _c
330 557 327 552 323 546 _c
319 540 316 535 314 531 _c
138 271 _l
136 268 134 264 131 260 _c
127 256 124 251 121 247 _c
118 243 115 239 112 235 _c
108 231 106 227 104 225 _c
347 225 _l
347 589 _l
_cl}_d
/five{{556 0 40 -9 514 688 _sc
514 224 _m
514 189 508 157 498 129 _c
488 100 472 75 452 55 _c
431 34 405 18 375 7 _c
345 -3 310 -9 270 -9 _c
234 -9 202 -5 175 3 _c
148 11 125 23 107 38 _c
89 52 74 70 63 90 _c
52 110 44 131 40 154 _c
129 164 _l
132 151 137 138 144 126 _c
150 114 159 103 171 93 _c
182 83 196 76 212 70 _c
228 64 248 62 272 62 _c
}_e{294 62 315 65 334 72 _c
352 79 368 89 381 103 _c
394 117 404 134 412 154 _c
419 174 423 196 423 222 _c
423 243 419 262 412 280 _c
405 298 395 313 383 326 _c
370 339 354 349 336 356 _c
318 363 297 367 274 367 _c
259 367 245 365 233 363 _c
221 360 209 356 199 352 _c
188 348 178 343 170 337 _c
161 331 153 324 146 318 _c
60 318 _l
83 688 _l
474 688 _l
474 613 _l
}_e{163 613 _l
150 395 _l
165 407 184 417 208 426 _c
232 434 260 439 292 439 _c
326 439 356 433 384 423 _c
411 413 434 398 454 379 _c
473 360 488 337 498 311 _c
508 284 514 255 514 224 _c
_cl}_e}_d
/six{{556 0 51 -9 512 698 _sc
512 225 _m
512 190 507 158 497 130 _c
487 101 473 76 455 56 _c
436 35 413 19 385 8 _c
357 -3 326 -9 290 -9 _c
250 -9 215 -1 185 13 _c
155 28 130 50 110 79 _c
90 108 76 143 66 185 _c
56 227 51 274 51 328 _c
51 389 56 443 67 489 _c
78 535 94 574 116 605 _c
137 635 163 658 193 674 _c
223 690 258 698 297 698 _c
}_e{320 698 342 695 363 691 _c
383 686 402 678 419 667 _c
435 656 450 642 463 624 _c
475 606 485 584 493 558 _c
409 543 _l
400 572 385 593 365 607 _c
345 620 322 627 296 627 _c
272 627 250 621 230 610 _c
210 598 194 581 180 559 _c
166 536 156 507 149 473 _c
141 439 138 399 138 354 _c
154 383 176 405 205 421 _c
234 437 267 445 305 445 _c
336 445 364 440 390 430 _c
}_e{415 420 437 405 455 386 _c
473 366 487 343 497 316 _c
507 289 512 259 512 225 _c
423 221 _m
423 245 420 266 414 285 _c
408 304 399 320 387 334 _c
375 348 361 358 344 366 _c
326 373 306 377 284 377 _c
268 377 251 374 235 370 _c
219 365 204 357 191 347 _c
178 336 167 322 159 305 _c
151 287 147 266 147 242 _c
147 216 150 193 157 171 _c
163 149 173 129 185 113 _c
}_e{197 97 211 84 229 75 _c
246 65 265 61 287 61 _c
308 61 327 64 344 72 _c
360 79 374 90 386 104 _c
398 118 407 134 413 154 _c
419 174 423 196 423 221 _c
_cl}_e}_d
/eight{{556 0 43 -9 513 698 _sc
513 192 _m
513 162 508 135 499 111 _c
489 86 475 65 456 47 _c
437 29 413 16 383 6 _c
353 -4 318 -9 278 -9 _c
238 -9 203 -4 173 6 _c
143 16 119 29 100 47 _c
80 65 66 86 57 110 _c
47 134 43 161 43 191 _c
43 216 46 238 54 258 _c
62 277 72 294 85 308 _c
98 322 113 334 129 342 _c
145 350 163 356 181 360 _c
181 362 _l
}_e{161 366 144 374 129 384 _c
113 394 101 406 91 420 _c
81 434 73 449 68 467 _c
62 484 60 502 60 522 _c
60 546 64 568 73 590 _c
82 611 96 630 114 646 _c
132 662 155 674 182 684 _c
209 693 240 698 276 698 _c
314 698 346 693 374 684 _c
401 674 424 662 442 646 _c
460 630 473 611 482 589 _c
491 567 496 545 496 521 _c
496 502 493 484 487 467 _c
}_e{481 449 474 433 464 419 _c
454 405 441 393 426 383 _c
410 373 393 367 374 363 _c
374 361 _l
393 357 411 351 428 343 _c
445 334 460 323 472 309 _c
484 295 494 278 502 258 _c
509 238 513 216 513 192 _c
404 516 _m
404 533 401 549 397 563 _c
393 577 386 590 376 600 _c
366 610 352 618 336 624 _c
320 630 300 633 276 633 _c
253 633 234 630 218 624 _c
202 618 188 610 178 600 _c
}_e{168 590 160 577 156 563 _c
151 549 149 533 149 516 _c
149 502 150 488 154 474 _c
158 460 164 447 174 435 _c
183 423 196 413 213 406 _c
229 398 251 395 277 395 _c
305 395 327 398 344 406 _c
360 413 373 423 382 435 _c
391 447 397 460 400 474 _c
402 488 404 502 404 516 _c
421 200 _m
421 216 418 232 414 248 _c
410 263 402 277 391 289 _c
380 301 365 310 346 318 _c
}_e{327 325 304 329 276 329 _c
250 329 229 325 211 318 _c
193 310 178 301 167 289 _c
155 277 147 263 142 247 _c
136 231 134 215 134 198 _c
134 177 136 158 142 140 _c
147 122 155 107 167 95 _c
178 83 193 73 212 66 _c
230 59 253 56 279 56 _c
305 56 328 59 346 66 _c
364 73 379 83 390 95 _c
401 107 409 122 414 140 _c
418 158 421 178 421 200 _c
_cl}_e}_d
/e{{556 0 42 -9 512 538 _sc
135 246 _m
135 218 137 192 143 169 _c
149 145 158 125 170 109 _c
182 92 197 79 215 70 _c
233 60 256 56 282 56 _c
320 56 350 63 373 79 _c
396 94 412 113 420 137 _c
498 115 _l
492 100 484 85 474 71 _c
464 56 450 43 434 31 _c
418 19 397 9 372 2 _c
347 -5 317 -9 282 -9 _c
204 -9 144 14 103 60 _c
62 106 42 176 42 268 _c
}_e{42 317 48 359 61 393 _c
73 427 90 455 112 477 _c
133 498 158 513 187 523 _c
215 533 246 538 279 538 _c
323 538 360 530 390 516 _c
420 502 444 482 462 457 _c
480 431 492 402 500 368 _c
508 334 512 297 512 257 _c
512 246 _l
135 246 _l
421 313 _m
416 368 402 408 378 434 _c
354 460 321 473 277 473 _c
262 473 247 470 231 466 _c
215 461 200 453 186 441 _c
}_e{172 429 161 412 152 392 _c
142 371 137 345 136 313 _c
421 313 _l
_cl}_e}_d
/f{{278 0 14 0 279 724 _sc
176 464 _m
176 0 _l
88 0 _l
88 464 _l
14 464 _l
14 528 _l
88 528 _l
88 588 _l
88 607 89 625 93 641 _c
97 657 103 672 113 684 _c
123 696 136 706 153 713 _c
169 720 191 724 217 724 _c
227 724 238 723 250 722 _c
261 721 271 720 279 718 _c
279 651 _l
273 651 267 652 260 653 _c
252 654 246 655 240 655 _c
227 655 216 653 208 649 _c
}_e{200 645 193 640 189 634 _c
184 627 181 619 179 609 _c
177 599 176 588 176 576 _c
176 528 _l
279 528 _l
279 464 _l
176 464 _l
_cl}_e}_d
/n{{556 0 66 0 491 538 _sc
403 0 _m
403 335 _l
403 361 401 382 397 399 _c
393 416 387 430 379 441 _c
370 451 359 459 345 463 _c
331 467 314 470 294 470 _c
273 470 254 466 237 459 _c
220 451 206 441 194 427 _c
182 413 173 396 167 376 _c
160 356 157 332 157 306 _c
157 0 _l
69 0 _l
69 416 _l
69 426 69 438 69 450 _c
69 462 68 474 68 485 _c
68 495 67 505 67 513 _c
}_e{67 521 66 526 66 528 _c
149 528 _l
149 526 150 522 150 515 _c
150 507 151 499 151 490 _c
151 481 152 472 152 462 _c
152 452 153 444 153 438 _c
155 438 _l
163 453 172 467 182 479 _c
192 491 204 502 218 511 _c
231 519 246 526 264 531 _c
281 535 301 538 324 538 _c
353 538 378 534 399 527 _c
420 520 437 509 451 494 _c
465 479 475 460 481 436 _c
487 412 491 384 491 352 _c
}_e{491 0 _l
403 0 _l
_cl}_e}_d
/o{{556 0 42 -9 514 538 _sc
514 265 _m
514 172 493 103 453 58 _c
412 13 353 -9 276 -9 _c
239 -9 206 -3 177 7 _c
148 17 124 34 104 57 _c
84 80 68 109 58 143 _c
47 177 42 218 42 265 _c
42 447 121 538 279 538 _c
319 538 355 532 385 521 _c
415 509 439 492 458 470 _c
477 447 491 418 500 384 _c
509 350 514 310 514 265 _c
422 265 _m
422 305 418 339 412 366 _c
}_e{406 392 396 414 384 430 _c
372 446 357 457 339 463 _c
321 469 302 473 280 473 _c
258 473 237 469 219 463 _c
201 456 185 445 173 429 _c
160 413 150 391 144 365 _c
137 338 134 305 134 265 _c
134 223 137 189 145 163 _c
152 136 162 115 174 99 _c
186 83 201 71 219 65 _c
236 58 255 55 275 55 _c
297 55 318 58 336 64 _c
354 70 369 82 382 98 _c
}_e{394 114 404 135 411 162 _c
418 189 422 223 422 265 _c
_cl}_e}_d
/s{{500 0 28 -9 464 537 _sc
464 146 _m
464 121 459 99 449 80 _c
439 60 425 44 407 31 _c
389 17 366 7 340 1 _c
314 -5 284 -9 250 -9 _c
219 -9 191 -6 167 -2 _c
142 2 120 9 102 20 _c
83 30 67 44 55 61 _c
43 78 34 99 28 124 _c
105 139 _l
113 111 128 90 152 77 _c
175 63 208 57 250 57 _c
268 57 285 58 301 61 _c
317 63 330 68 342 74 _c
}_e{353 80 362 89 368 100 _c
374 110 378 123 378 139 _c
378 155 374 168 367 178 _c
359 188 349 197 336 204 _c
322 210 306 216 287 221 _c
268 226 247 232 225 239 _c
203 244 182 250 161 257 _c
140 264 121 273 105 284 _c
88 295 74 309 64 326 _c
54 342 49 363 49 389 _c
49 437 66 473 100 499 _c
134 524 184 537 250 537 _c
308 537 355 526 389 506 _c
}_e{423 485 445 452 455 407 _c
375 397 _l
372 411 367 422 359 432 _c
351 441 342 448 331 454 _c
319 460 307 464 293 466 _c
279 468 265 470 250 470 _c
210 470 181 464 162 452 _c
143 440 134 421 134 397 _c
134 383 137 371 144 362 _c
151 352 161 344 174 338 _c
186 332 201 326 219 322 _c
237 317 256 312 277 307 _c
291 303 305 300 320 296 _c
334 292 349 287 363 281 _c
}_e{377 275 390 268 402 261 _c
414 253 424 244 434 233 _c
443 222 450 209 456 195 _c
461 181 464 164 464 146 _c
_cl}_e}_d
/t{278 0 15 -7 271 646 _sc
271 4 _m
257 1 243 -1 229 -3 _c
215 -5 200 -7 182 -7 _c
111 -7 76 32 76 112 _c
76 464 _l
15 464 _l
15 528 _l
80 528 _l
105 646 _l
164 646 _l
164 528 _l
262 528 _l
262 464 _l
164 464 _l
164 131 _l
164 105 168 87 176 77 _c
184 67 199 62 220 62 _c
228 62 236 62 244 64 _c
252 65 261 67 271 69 _c
271 4 _l
_cl}_d
/v{500 0 3 0 497 528 _sc
299 0 _m
195 0 _l
3 528 _l
97 528 _l
213 185 _l
215 177 218 168 221 158 _c
224 148 227 137 231 126 _c
234 115 237 104 240 94 _c
242 84 245 75 247 69 _c
249 75 251 84 254 94 _c
257 104 260 115 264 126 _c
267 136 270 147 274 157 _c
277 167 280 176 283 184 _c
403 528 _l
497 528 _l
299 0 _l
_cl}_d
/w{{722 0 0 0 725 528 _sc
573 0 _m
471 0 _l
387 341 _l
384 349 381 360 379 373 _c
376 386 373 399 371 412 _c
367 426 364 440 361 456 _c
358 441 355 427 352 413 _c
349 400 346 387 343 374 _c
340 360 337 349 335 339 _c
248 0 _l
146 0 _l
0 528 _l
85 528 _l
175 169 _l
177 161 179 152 181 141 _c
183 130 186 120 188 110 _c
190 98 193 85 196 73 _c
}_e{198 85 201 97 204 109 _c
206 119 209 129 212 139 _c
214 149 217 158 219 166 _c
314 528 _l
409 528 _l
501 166 _l
503 157 505 147 508 137 _c
510 126 513 116 516 106 _c
518 95 521 84 523 73 _c
525 85 528 97 531 109 _c
533 119 536 129 538 140 _c
540 151 543 161 545 169 _c
639 528 _l
725 528 _l
573 0 _l
_cl}_e}_d
end readonly def

/BuildGlyph
 {exch begin
 CharStrings exch
 2 copy known not{pop /.notdef}if
 true 3 1 roll get exec
 end}_d

/BuildChar {
 1 index /Encoding get exch get
 1 index /BuildGlyph get exec
}_d

FontName currentdict end definefont pop
end
%%EndProlog
mpldict begin
162 288 translate
288 216 0 0 clipbox
100000 setmiterlimit
gsave
0 0 m
288 0 l
288 216 l
0 216 l
cl
1.000 setgray
fill
grestore
gsave
36 27 m
259.2 27 l
259.2 194.4 l
36 194.4 l
cl
1.000 setgray
fill
grestore
1.000 setlinewidth
1 setlinejoin
1 setlinecap
[] 0 setdash
0.800 setgray
gsave
223.2 167.4 36 27 clipbox
36 27 m
36 194.4 l
stroke
grestore
0.150 setgray
/LiberationSans findfont
10.000 scalefont
setfont
gsave
33.218750 12.750000 translate
0.000000 rotate
0.000000 0.000000 m /zero glyphshow
grestore
0.800 setgray
gsave
223.2 167.4 36 27 clipbox
73.2 27 m
73.2 194.4 l
stroke
grestore
0.150 setgray
gsave
62.075000 12.750000 translate
0.000000 rotate
0.000000 0.000000 m /two glyphshow
5.561523 0.000000 m /zero glyphshow
11.123047 0.000000 m /zero glyphshow
16.684570 0.000000 m /zero glyphshow
grestore
0.800 setgray
gsave
223.2 167.4 36 27 clipbox
110.4 27 m
110.4 194.4 l
stroke
grestore
0.150 setgray
gsave
99.275000 12.750000 translate
0.000000 rotate
0.000000 0.000000 m /four glyphshow
5.561523 0.000000 m /zero glyphshow
11.123047 0.000000 m /zero glyphshow
16.684570 0.000000 m /zero glyphshow
grestore
0.800 setgray
gsave
223.2 167.4 36 27 clipbox
147.6 27 m
147.6 194.4 l
stroke
grestore
0.150 setgray
gsave
136.475000 12.750000 translate
0.000000 rotate
0.000000 0.000000 m /six glyphshow
5.561523 0.000000 m /zero glyphshow
11.123047 0.000000 m /zero glyphshow
16.684570 0.000000 m /zero glyphshow
grestore
0.800 setgray
gsave
223.2 167.4 36 27 clipbox
184.8 27 m
184.8 194.4 l
stroke
grestore
0.150 setgray
gsave
173.675000 12.750000 translate
0.000000 rotate
0.000000 0.000000 m /eight glyphshow
5.561523 0.000000 m /zero glyphshow
11.123047 0.000000 m /zero glyphshow
16.684570 0.000000 m /zero glyphshow
grestore
0.800 setgray
gsave
223.2 167.4 36 27 clipbox
222 27 m
222 194.4 l
stroke
grestore
0.150 setgray
gsave
208.093750 12.750000 translate
0.000000 rotate
0.000000 0.000000 m /one glyphshow
5.561523 0.000000 m /zero glyphshow
11.123047 0.000000 m /zero glyphshow
16.684570 0.000000 m /zero glyphshow
22.246094 0.000000 m /zero glyphshow
grestore
0.800 setgray
gsave
223.2 167.4 36 27 clipbox
259.2 27 m
259.2 194.4 l
stroke
grestore
0.150 setgray
gsave
245.293750 12.750000 translate
0.000000 rotate
0.000000 0.000000 m /one glyphshow
5.561523 0.000000 m /two glyphshow
11.123047 0.000000 m /zero glyphshow
16.684570 0.000000 m /zero glyphshow
22.246094 0.000000 m /zero glyphshow
grestore
/LiberationSans findfont
11.000 scalefont
setfont
gsave
120.662500 -2.296875 translate
0.000000 rotate
0.000000 0.000000 m /numbersign glyphshow
6.117676 0.000000 m /uni00A0 glyphshow
9.173828 0.000000 m /o glyphshow
15.291504 0.000000 m /f glyphshow
18.347656 0.000000 m /uni00A0 glyphshow
21.403809 0.000000 m /e glyphshow
27.521484 0.000000 m /v glyphshow
33.021484 0.000000 m /e glyphshow
39.139160 0.000000 m /n glyphshow
45.256836 0.000000 m /t glyphshow
48.312988 0.000000 m /s glyphshow
grestore
0.800 setgray
gsave
223.2 167.4 36 27 clipbox
36 27 m
259.2 27 l
stroke
grestore
0.150 setgray
/LiberationSans findfont
10.000 scalefont
setfont
gsave
15.093750 24.414062 translate
0.000000 rotate
0.000000 0.000000 m /zero glyphshow
5.561523 0.000000 m /period glyphshow
8.339844 0.000000 m /zero glyphshow
grestore
0.800 setgray
gsave
223.2 167.4 36 27 clipbox
36 60.48 m
259.2 60.48 l
stroke
grestore
0.150 setgray
gsave
15.093750 57.894063 translate
0.000000 rotate
0.000000 0.000000 m /zero glyphshow
5.561523 0.000000 m /period glyphshow
8.339844 0.000000 m /five glyphshow
grestore
0.800 setgray
gsave
223.2 167.4 36 27 clipbox
36 93.96 m
259.2 93.96 l
stroke
grestore
0.150 setgray
gsave
15.093750 91.374063 translate
0.000000 rotate
0.000000 0.000000 m /one glyphshow
5.561523 0.000000 m /period glyphshow
8.339844 0.000000 m /zero glyphshow
grestore
0.800 setgray
gsave
223.2 167.4 36 27 clipbox
36 127.44 m
259.2 127.44 l
stroke
grestore
0.150 setgray
gsave
15.093750 124.854063 translate
0.000000 rotate
0.000000 0.000000 m /one glyphshow
5.561523 0.000000 m /period glyphshow
8.339844 0.000000 m /five glyphshow
grestore
0.800 setgray
gsave
223.2 167.4 36 27 clipbox
36 160.92 m
259.2 160.92 l
stroke
grestore
0.150 setgray
gsave
15.093750 158.334063 translate
0.000000 rotate
0.000000 0.000000 m /two glyphshow
5.561523 0.000000 m /period glyphshow
8.339844 0.000000 m /zero glyphshow
grestore
0.800 setgray
gsave
223.2 167.4 36 27 clipbox
36 194.4 m
259.2 194.4 l
stroke
grestore
0.150 setgray
gsave
15.093750 191.814063 translate
0.000000 rotate
0.000000 0.000000 m /two glyphshow
5.561523 0.000000 m /period glyphshow
8.339844 0.000000 m /five glyphshow
grestore
gsave
7.093750 94.200000 translate
90.000000 rotate
/Cmmi10 findfont
11.0 scalefont
setfont
0.000000 0.015953 moveto
/epsilon1 glyphshow

/Cmr10 findfont
11.0 scalefont
setfont
4.452637 0.015953 moveto
/parenleft glyphshow

/Cmmi10 findfont
11.0 scalefont
setfont
8.722656 0.015953 moveto
/theta glyphshow

/Cmr10 findfont
7.7 scalefont
setfont
15.184407 4.225000 moveto
/parenleft glyphshow

/Cmsy10 findfont
7.7 scalefont
setfont
19.525432 4.225000 moveto
/asteriskmath glyphshow

/Cmr10 findfont
7.7 scalefont
setfont
24.727444 4.225000 moveto
/parenright glyphshow

/Cmr10 findfont
11.0 scalefont
setfont
28.417966 0.015953 moveto
/parenright glyphshow


grestore
1.750 setlinewidth
0.298 0.447 0.690 setrgbcolor
gsave
223.2 167.4 36 27 clipbox
45.114 163.055066 m
54.414 122.725582 l
72.9954 103.625666 l
135.2124 91.309614 l
230.8722 87.772537 l
stroke
grestore
gsave
223.2 167.4 36 27 clipbox
/o {
gsave
newpath
translate
0 -3.5 m
0.928211 -3.5 1.81853 -3.131218 2.474874 -2.474874 c
3.131218 -1.81853 3.5 -0.928211 3.5 0 c
3.5 0.928211 3.131218 1.81853 2.474874 2.474874 c
1.81853 3.131218 0.928211 3.5 0 3.5 c
-0.928211 3.5 -1.81853 3.131218 -2.474874 2.474874 c
-3.131218 1.81853 -3.5 0.928211 -3.5 0 c
-3.5 -0.928211 -3.131218 -1.81853 -2.474874 -2.474874 c
-1.81853 -3.131218 -0.928211 -3.5 0 -3.5 c
cl

0.298 0.447 0.690 setrgbcolor
fill
grestore
} bind def
45.114 163.055 o
54.414 122.726 o
72.9954 103.626 o
135.212 91.3096 o
230.872 87.7725 o
grestore
0.333 0.659 0.408 setrgbcolor
gsave
223.2 167.4 36 27 clipbox
45.114 49.246443 m
54.414 37.535917 l
72.9954 32.281884 l
135.2124 28.865586 l
230.8722 27.927585 l
stroke
grestore
gsave
223.2 167.4 36 27 clipbox
/o {
gsave
newpath
translate
0 -3.5 m
0.928211 -3.5 1.81853 -3.131218 2.474874 -2.474874 c
3.131218 -1.81853 3.5 -0.928211 3.5 0 c
3.5 0.928211 3.131218 1.81853 2.474874 2.474874 c
1.81853 3.131218 0.928211 3.5 0 3.5 c
-0.928211 3.5 -1.81853 3.131218 -2.474874 2.474874 c
-3.131218 1.81853 -3.5 0.928211 -3.5 0 c
-3.5 -0.928211 -3.131218 -1.81853 -2.474874 -2.474874 c
-1.81853 -3.131218 -0.928211 -3.5 0 -3.5 c
cl

0.333 0.659 0.408 setrgbcolor
fill
grestore
} bind def
45.114 49.2464 o
54.414 37.5359 o
72.9954 32.2819 o
135.212 28.8656 o
230.872 27.9276 o
grestore
1.000 setlinewidth
0 setlinejoin
2 setlinecap
0.800 setgray
gsave
36 194.4 m
259.2 194.4 l
stroke
grestore
gsave
259.2 27 m
259.2 194.4 l
stroke
grestore
gsave
36 27 m
259.2 27 l
stroke
grestore
gsave
36 27 m
36 194.4 l
stroke
grestore
1.750 setlinewidth
1 setlinejoin
1 setlinecap
0.298 0.447 0.690 setrgbcolor
gsave
198.29375 181.65 m
218.29375 181.65 l
stroke
grestore
gsave
/o {
gsave
newpath
translate
0 -3.5 m
0.928211 -3.5 1.81853 -3.131218 2.474874 -2.474874 c
3.131218 -1.81853 3.5 -0.928211 3.5 0 c
3.5 0.928211 3.131218 1.81853 2.474874 2.474874 c
1.81853 3.131218 0.928211 3.5 0 3.5 c
-0.928211 3.5 -1.81853 3.131218 -2.474874 2.474874 c
-3.131218 1.81853 -3.5 0.928211 -3.5 0 c
-3.5 -0.928211 -3.131218 -1.81853 -2.474874 -2.474874 c
-1.81853 -3.131218 -0.928211 -3.5 0 -3.5 c
cl

0.298 0.447 0.690 setrgbcolor
fill
grestore
} bind def
208.294 181.65 o
grestore
0.150 setgray
gsave
226.293750 178.150000 translate
0.000000 rotate
0.000000 0.000000 m /t glyphshow
2.778320 0.000000 m /w glyphshow
10.000000 0.000000 m /e glyphshow
15.561523 0.000000 m /e glyphshow
21.123047 0.000000 m /t glyphshow
grestore
0.333 0.659 0.408 setrgbcolor
gsave
198.29375 167.321875 m
218.29375 167.321875 l
stroke
grestore
gsave
/o {
gsave
newpath
translate
0 -3.5 m
0.928211 -3.5 1.81853 -3.131218 2.474874 -2.474874 c
3.131218 -1.81853 3.5 -0.928211 3.5 0 c
3.5 0.928211 3.131218 1.81853 2.474874 2.474874 c
1.81853 3.131218 0.928211 3.5 0 3.5 c
-0.928211 3.5 -1.81853 3.131218 -2.474874 2.474874 c
-3.131218 1.81853 -3.5 0.928211 -3.5 0 c
-3.5 -0.928211 -3.131218 -1.81853 -2.474874 -2.474874 c
-1.81853 -3.131218 -0.928211 -3.5 0 -3.5 c
cl

0.333 0.659 0.408 setrgbcolor
fill
grestore
} bind def
208.294 167.322 o
grestore
0.150 setgray
gsave
226.293750 163.821875 translate
0.000000 rotate
0.000000 0.000000 m /n glyphshow
5.561523 0.000000 m /e glyphshow
11.123047 0.000000 m /w glyphshow
18.344727 0.000000 m /s glyphshow
grestore

end
showpage
