%!PS-Adobe-3.0 EPSF-3.0
%%Title: ../figures/SyntheticExperiments/root-acc.eps
%%Creator: matplotlib version 1.5.3, http://matplotlib.org/
%%CreationDate: Sun Jan  8 16:08:21 2017
%%Orientation: portrait
%%BoundingBox: 110 286 501 505
%%EndComments
%%BeginProlog
/mpldict 8 dict def
mpldict begin
/m { moveto } bind def
/l { lineto } bind def
/r { rlineto } bind def
/c { curveto } bind def
/cl { closepath } bind def
/box {
m
1 index 0 r
0 exch r
neg 0 r
cl
} bind def
/clipbox {
box
clip
newpath
} bind def
%!PS-Adobe-3.0 Resource-Font
%%Title: Liberation Sans
%%Copyright: Copyright (c) 2007 Red Hat, Inc. All rights reserved. LIBERATION is a trademark of Red Hat, Inc.
%%Creator: Converted from TrueType to type 3 by PPR
25 dict begin
/_d{bind def}bind def
/_m{moveto}_d
/_l{lineto}_d
/_cl{closepath eofill}_d
/_c{curveto}_d
/_sc{7 -1 roll{setcachedevice}{pop pop pop pop pop pop}ifelse}_d
/_e{exec}_d
/FontName /LiberationSans def
/PaintType 0 def
/FontMatrix[.001 0 0 .001 0 0]def
/FontBBox[-203 -303 1050 910]def
/FontType 3 def
/Encoding [ /uni00A0 /numbersign /period /zero /one /three /four /five /six /seven /eight /nine /A /B /E /F /I /K /M /N /P /R /T /U /underscore /a /c /e /f /n /o /s /t /v ] def
/FontInfo 10 dict dup begin
/FamilyName (Liberation Sans) def
/FullName (Liberation Sans) def
/Notice (Copyright (c) 2007 Red Hat, Inc. All rights reserved. LIBERATION is a trademark of Red Hat, Inc. Liberation is a trademark of Red Hat, Inc. registered in U.S. Patent and Trademark Office and certain other jurisdictions.) def
/Weight (Regular) def
/Version (Version 1.07.3) def
/ItalicAngle 0.0 def
/isFixedPitch false def
/UnderlinePosition -217 def
/UnderlineThickness 150 def
end readonly def
/CharStrings 34 dict dup begin
/uni00A0{278 0 0 0 0 0 _sc
}_d
/numbersign{{556 0 4 0 551 684 _sc
438 432 _m
399 252 _l
526 252 _l
526 199 _l
388 199 _l
345 0 _l
292 0 _l
333 199 _l
156 199 _l
115 0 _l
62 0 _l
103 199 _l
4 199 _l
4 252 _l
114 252 _l
152 432 _l
29 432 _l
29 485 _l
163 485 _l
207 684 _l
260 684 _l
217 485 _l
395 485 _l
438 684 _l
491 684 _l
448 485 _l
551 485 _l
551 432 _l
438 432 _l
208 432 _m
}_e{168 252 _l
345 252 _l
383 432 _l
208 432 _l
_cl}_e}_d
/period{278 0 91 0 187 107 _sc
91 0 _m
91 107 _l
187 107 _l
187 0 _l
91 0 _l
_cl}_d
/zero{{556 0 39 -9 517 698 _sc
517 344 _m
517 278 510 222 498 177 _c
485 132 468 96 447 68 _c
425 40 400 20 371 8 _c
341 -3 310 -9 277 -9 _c
243 -9 212 -3 183 8 _c
154 20 129 39 108 67 _c
86 95 69 131 57 177 _c
45 222 39 278 39 344 _c
39 413 45 470 57 516 _c
69 561 86 597 108 625 _c
129 652 154 671 184 682 _c
213 692 245 698 280 698 _c
}_e{312 698 343 692 372 682 _c
401 671 426 652 448 625 _c
469 597 486 561 498 516 _c
510 470 517 413 517 344 _c
428 344 _m
428 398 424 444 418 480 _c
411 516 401 545 389 567 _c
376 589 360 604 342 613 _c
324 622 303 627 280 627 _c
255 627 233 622 214 613 _c
195 604 179 589 166 567 _c
153 545 143 516 137 480 _c
131 444 128 398 128 344 _c
128 291 131 247 138 211 _c
}_e{144 175 154 146 167 124 _c
180 102 196 86 214 76 _c
232 66 254 62 278 62 _c
301 62 322 66 340 76 _c
358 86 374 102 387 124 _c
400 146 410 175 417 211 _c
424 247 428 291 428 344 _c
_cl}_e}_d
/one{556 0 76 0 507 688 _sc
76 0 _m
76 75 _l
251 75 _l
251 604 _l
96 493 _l
96 576 _l
259 688 _l
340 688 _l
340 75 _l
507 75 _l
507 0 _l
76 0 _l
_cl}_d
/three{{556 0 38 -9 512 698 _sc
512 190 _m
512 158 506 130 496 105 _c
486 80 471 59 451 42 _c
431 25 407 12 378 4 _c
349 -4 316 -9 279 -9 _c
236 -9 200 -4 171 6 _c
141 16 117 30 99 48 _c
80 65 66 85 56 107 _c
46 129 40 153 38 177 _c
129 185 _l
131 167 136 150 143 135 _c
150 120 160 107 172 97 _c
184 86 198 78 216 72 _c
234 66 255 63 279 63 _c
}_e{323 63 357 73 383 95 _c
408 117 421 149 421 193 _c
421 218 415 238 404 254 _c
392 269 378 281 362 290 _c
345 298 327 304 307 307 _c
287 310 269 312 253 312 _c
203 312 _l
203 388 _l
251 388 _l
267 388 285 389 303 393 _c
321 396 337 402 352 411 _c
366 420 378 432 388 448 _c
398 463 403 483 403 507 _c
403 543 392 572 370 594 _c
348 615 316 626 274 626 _c
}_e{235 626 204 616 180 596 _c
156 576 142 548 138 512 _c
50 519 _l
53 549 61 575 74 598 _c
87 620 104 639 124 654 _c
144 668 166 679 192 687 _c
218 694 245 698 275 698 _c
313 698 346 693 374 683 _c
402 673 424 660 442 644 _c
459 628 472 609 480 587 _c
488 565 493 541 493 516 _c
493 496 490 477 485 459 _c
479 441 471 426 459 412 _c
447 398 432 386 414 376 _c
}_e{396 366 374 358 349 353 _c
349 351 _l
377 348 401 342 421 332 _c
441 322 458 310 472 296 _c
485 282 495 265 502 247 _c
508 229 512 210 512 190 _c
_cl}_e}_d
/four{556 0 23 0 527 688 _sc
430 156 _m
430 0 _l
347 0 _l
347 156 _l
23 156 _l
23 224 _l
338 688 _l
430 688 _l
430 225 _l
527 225 _l
527 156 _l
430 156 _l
347 589 _m
346 587 344 583 342 579 _c
339 574 336 569 333 563 _c
330 557 327 552 323 546 _c
319 540 316 535 314 531 _c
138 271 _l
136 268 134 264 131 260 _c
127 256 124 251 121 247 _c
118 243 115 239 112 235 _c
108 231 106 227 104 225 _c
347 225 _l
347 589 _l
_cl}_d
/five{{556 0 40 -9 514 688 _sc
514 224 _m
514 189 508 157 498 129 _c
488 100 472 75 452 55 _c
431 34 405 18 375 7 _c
345 -3 310 -9 270 -9 _c
234 -9 202 -5 175 3 _c
148 11 125 23 107 38 _c
89 52 74 70 63 90 _c
52 110 44 131 40 154 _c
129 164 _l
132 151 137 138 144 126 _c
150 114 159 103 171 93 _c
182 83 196 76 212 70 _c
228 64 248 62 272 62 _c
}_e{294 62 315 65 334 72 _c
352 79 368 89 381 103 _c
394 117 404 134 412 154 _c
419 174 423 196 423 222 _c
423 243 419 262 412 280 _c
405 298 395 313 383 326 _c
370 339 354 349 336 356 _c
318 363 297 367 274 367 _c
259 367 245 365 233 363 _c
221 360 209 356 199 352 _c
188 348 178 343 170 337 _c
161 331 153 324 146 318 _c
60 318 _l
83 688 _l
474 688 _l
474 613 _l
}_e{163 613 _l
150 395 _l
165 407 184 417 208 426 _c
232 434 260 439 292 439 _c
326 439 356 433 384 423 _c
411 413 434 398 454 379 _c
473 360 488 337 498 311 _c
508 284 514 255 514 224 _c
_cl}_e}_d
/six{{556 0 51 -9 512 698 _sc
512 225 _m
512 190 507 158 497 130 _c
487 101 473 76 455 56 _c
436 35 413 19 385 8 _c
357 -3 326 -9 290 -9 _c
250 -9 215 -1 185 13 _c
155 28 130 50 110 79 _c
90 108 76 143 66 185 _c
56 227 51 274 51 328 _c
51 389 56 443 67 489 _c
78 535 94 574 116 605 _c
137 635 163 658 193 674 _c
223 690 258 698 297 698 _c
}_e{320 698 342 695 363 691 _c
383 686 402 678 419 667 _c
435 656 450 642 463 624 _c
475 606 485 584 493 558 _c
409 543 _l
400 572 385 593 365 607 _c
345 620 322 627 296 627 _c
272 627 250 621 230 610 _c
210 598 194 581 180 559 _c
166 536 156 507 149 473 _c
141 439 138 399 138 354 _c
154 383 176 405 205 421 _c
234 437 267 445 305 445 _c
336 445 364 440 390 430 _c
}_e{415 420 437 405 455 386 _c
473 366 487 343 497 316 _c
507 289 512 259 512 225 _c
423 221 _m
423 245 420 266 414 285 _c
408 304 399 320 387 334 _c
375 348 361 358 344 366 _c
326 373 306 377 284 377 _c
268 377 251 374 235 370 _c
219 365 204 357 191 347 _c
178 336 167 322 159 305 _c
151 287 147 266 147 242 _c
147 216 150 193 157 171 _c
163 149 173 129 185 113 _c
}_e{197 97 211 84 229 75 _c
246 65 265 61 287 61 _c
308 61 327 64 344 72 _c
360 79 374 90 386 104 _c
398 118 407 134 413 154 _c
419 174 423 196 423 221 _c
_cl}_e}_d
/seven{556 0 51 0 506 688 _sc
506 617 _m
471 564 439 513 410 465 _c
381 416 356 367 336 318 _c
315 268 299 218 287 166 _c
275 114 270 58 270 0 _c
178 0 _l
178 55 184 109 197 162 _c
210 214 228 266 250 317 _c
272 368 298 418 328 468 _c
357 517 388 565 421 613 _c
51 613 _l
51 688 _l
506 688 _l
506 617 _l
_cl}_d
/eight{{556 0 43 -9 513 698 _sc
513 192 _m
513 162 508 135 499 111 _c
489 86 475 65 456 47 _c
437 29 413 16 383 6 _c
353 -4 318 -9 278 -9 _c
238 -9 203 -4 173 6 _c
143 16 119 29 100 47 _c
80 65 66 86 57 110 _c
47 134 43 161 43 191 _c
43 216 46 238 54 258 _c
62 277 72 294 85 308 _c
98 322 113 334 129 342 _c
145 350 163 356 181 360 _c
181 362 _l
}_e{161 366 144 374 129 384 _c
113 394 101 406 91 420 _c
81 434 73 449 68 467 _c
62 484 60 502 60 522 _c
60 546 64 568 73 590 _c
82 611 96 630 114 646 _c
132 662 155 674 182 684 _c
209 693 240 698 276 698 _c
314 698 346 693 374 684 _c
401 674 424 662 442 646 _c
460 630 473 611 482 589 _c
491 567 496 545 496 521 _c
496 502 493 484 487 467 _c
}_e{481 449 474 433 464 419 _c
454 405 441 393 426 383 _c
410 373 393 367 374 363 _c
374 361 _l
393 357 411 351 428 343 _c
445 334 460 323 472 309 _c
484 295 494 278 502 258 _c
509 238 513 216 513 192 _c
404 516 _m
404 533 401 549 397 563 _c
393 577 386 590 376 600 _c
366 610 352 618 336 624 _c
320 630 300 633 276 633 _c
253 633 234 630 218 624 _c
202 618 188 610 178 600 _c
}_e{168 590 160 577 156 563 _c
151 549 149 533 149 516 _c
149 502 150 488 154 474 _c
158 460 164 447 174 435 _c
183 423 196 413 213 406 _c
229 398 251 395 277 395 _c
305 395 327 398 344 406 _c
360 413 373 423 382 435 _c
391 447 397 460 400 474 _c
402 488 404 502 404 516 _c
421 200 _m
421 216 418 232 414 248 _c
410 263 402 277 391 289 _c
380 301 365 310 346 318 _c
}_e{327 325 304 329 276 329 _c
250 329 229 325 211 318 _c
193 310 178 301 167 289 _c
155 277 147 263 142 247 _c
136 231 134 215 134 198 _c
134 177 136 158 142 140 _c
147 122 155 107 167 95 _c
178 83 193 73 212 66 _c
230 59 253 56 279 56 _c
305 56 328 59 346 66 _c
364 73 379 83 390 95 _c
401 107 409 122 414 140 _c
418 158 421 178 421 200 _c
_cl}_e}_d
/nine{{556 0 47 -9 509 698 _sc
509 358 _m
509 296 503 243 491 197 _c
479 151 463 112 442 82 _c
420 51 394 28 363 13 _c
332 -1 298 -9 260 -9 _c
233 -9 209 -6 188 -1 _c
167 3 148 11 132 23 _c
115 35 101 50 89 68 _c
77 86 68 108 61 134 _c
145 147 _l
154 117 168 96 188 82 _c
207 68 231 61 261 61 _c
285 61 306 66 326 78 _c
346 89 362 106 376 128 _c
}_e{390 150 401 179 409 213 _c
417 247 421 286 422 332 _c
415 316 406 303 394 291 _c
382 279 368 268 353 260 _c
338 252 322 245 304 241 _c
286 237 269 235 251 235 _c
219 235 191 240 166 252 _c
140 263 119 279 102 299 _c
84 319 71 343 61 372 _c
51 400 47 432 47 467 _c
47 502 52 534 62 563 _c
72 591 87 616 107 636 _c
126 656 150 671 179 682 _c
}_e{207 692 240 698 276 698 _c
352 698 410 669 450 613 _c
489 556 509 471 509 358 _c
413 443 _m
413 468 410 492 404 514 _c
398 536 389 556 377 573 _c
365 589 350 602 333 612 _c
315 622 295 627 273 627 _c
251 627 232 623 215 615 _c
198 607 184 597 172 583 _c
160 569 151 553 145 533 _c
139 513 136 491 136 467 _c
136 443 138 422 144 402 _c
150 382 158 365 170 351 _c
}_e{182 336 196 324 213 316 _c
229 308 249 304 272 304 _c
288 304 304 306 321 312 _c
338 318 353 326 367 338 _c
380 349 391 363 400 381 _c
408 398 413 419 413 443 _c
_cl}_e}_d
/A{667 0 2 0 665 688 _sc
570 0 _m
491 201 _l
178 201 _l
99 0 _l
2 0 _l
283 688 _l
389 688 _l
665 0 _l
570 0 _l
375 501 _m
369 514 364 527 360 541 _c
355 554 351 566 347 577 _c
343 587 340 596 338 604 _c
336 611 334 616 334 618 _c
333 616 332 611 330 604 _c
328 596 325 587 321 576 _c
317 565 312 553 308 540 _c
303 526 298 513 294 500 _c
206 274 _l
463 274 _l
375 501 _l
_cl}_d
/B{{667 0 82 0 614 688 _sc
614 194 _m
614 159 607 129 593 105 _c
579 80 561 60 538 44 _c
515 28 488 17 458 10 _c
427 3 395 0 361 0 _c
82 0 _l
82 688 _l
332 688 _l
370 688 404 684 434 678 _c
464 672 489 662 510 648 _c
531 634 547 617 558 596 _c
568 575 574 550 574 521 _c
574 501 571 483 566 466 _c
560 449 552 434 541 420 _c
530 406 516 395 500 385 _c
}_e{484 375 465 367 443 363 _c
471 359 495 353 517 344 _c
538 334 556 322 570 308 _c
584 293 595 276 603 257 _c
610 237 614 216 614 194 _c
480 510 _m
480 546 467 573 442 589 _c
416 605 380 613 332 613 _c
175 613 _l
175 396 _l
332 396 _l
359 396 382 398 401 404 _c
420 409 435 416 447 426 _c
459 436 467 448 472 462 _c
477 476 480 492 480 510 _c
520 201 _m
}_e{520 223 516 241 508 257 _c
500 272 488 284 473 294 _c
458 304 440 311 419 316 _c
398 320 375 323 349 323 _c
175 323 _l
175 75 _l
356 75 _l
380 75 402 76 422 80 _c
442 84 459 91 474 101 _c
488 111 500 124 508 140 _c
516 156 520 177 520 201 _c
_cl}_e}_d
/E{667 0 82 0 624 688 _sc
82 0 _m
82 688 _l
604 688 _l
604 612 _l
175 612 _l
175 391 _l
575 391 _l
575 316 _l
175 316 _l
175 76 _l
624 76 _l
624 0 _l
82 0 _l
_cl}_d
/F{611 0 82 0 571 688 _sc
175 612 _m
175 356 _l
559 356 _l
559 279 _l
175 279 _l
175 0 _l
82 0 _l
82 688 _l
571 688 _l
571 612 _l
175 612 _l
_cl}_d
/I{278 0 92 0 186 688 _sc
92 0 _m
92 688 _l
186 688 _l
186 0 _l
92 0 _l
_cl}_d
/K{667 0 82 0 656 688 _sc
540 0 _m
265 332 _l
175 264 _l
175 0 _l
82 0 _l
82 688 _l
175 688 _l
175 343 _l
507 688 _l
617 688 _l
324 389 _l
656 0 _l
540 0 _l
_cl}_d
/M{{833 0 82 0 751 688 _sc
667 0 _m
667 459 _l
667 475 667 492 667 510 _c
667 527 668 543 669 557 _c
669 573 670 589 671 605 _c
667 589 662 572 657 556 _c
653 542 648 527 643 511 _c
638 495 633 481 628 469 _c
451 0 _l
385 0 _l
205 469 _l
203 473 201 479 199 486 _c
197 492 194 499 192 507 _c
189 514 186 521 184 529 _c
182 537 180 544 178 552 _c
172 569 166 587 162 605 _c
}_e{162 587 162 569 163 551 _c
163 535 164 519 164 503 _c
164 486 165 471 165 459 _c
165 0 _l
82 0 _l
82 688 _l
205 688 _l
388 211 _l
390 204 392 195 396 185 _c
399 175 402 164 405 154 _c
408 143 411 133 413 123 _c
415 113 417 106 418 102 _c
419 106 421 114 424 124 _c
426 134 429 144 433 155 _c
436 165 439 176 443 186 _c
446 196 449 204 452 211 _c
631 688 _l
}_e{751 688 _l
751 0 _l
667 0 _l
_cl}_e}_d
/N{722 0 82 0 641 688 _sc
528 0 _m
160 586 _l
160 570 161 554 163 539 _c
163 525 164 511 164 496 _c
164 481 165 468 165 457 _c
165 0 _l
82 0 _l
82 688 _l
190 688 _l
563 98 _l
561 114 560 130 560 146 _c
559 160 558 175 558 191 _c
557 207 557 222 557 237 _c
557 688 _l
641 688 _l
641 0 _l
528 0 _l
_cl}_d
/P{667 0 82 0 614 688 _sc
614 481 _m
614 451 609 423 599 397 _c
589 371 574 348 554 329 _c
534 310 510 295 481 284 _c
451 273 417 268 377 268 _c
175 268 _l
175 0 _l
82 0 _l
82 688 _l
372 688 _l
412 688 448 683 478 673 _c
508 663 533 649 553 631 _c
573 613 589 591 599 565 _c
609 539 614 511 614 481 _c
521 480 _m
521 523 507 556 480 579 _c
453 601 413 613 360 613 _c
175 613 _l
175 342 _l
364 342 _l
418 342 457 353 483 377 _c
508 401 521 435 521 480 _c
_cl}_d
/R{{722 0 82 0 676 688 _sc
568 0 _m
390 286 _l
175 286 _l
175 0 _l
82 0 _l
82 688 _l
406 688 _l
444 688 479 683 509 674 _c
539 665 565 652 585 635 _c
605 618 621 597 632 573 _c
642 549 648 521 648 491 _c
648 469 644 447 638 426 _c
632 405 622 386 608 368 _c
594 350 577 335 556 323 _c
535 310 510 301 480 296 _c
676 0 _l
568 0 _l
555 490 _m
}_e{555 510 551 528 544 544 _c
536 559 526 572 512 582 _c
498 592 482 600 463 605 _c
443 610 421 613 396 613 _c
175 613 _l
175 359 _l
400 359 _l
426 359 449 362 469 369 _c
489 375 505 385 518 397 _c
530 409 540 422 546 438 _c
552 454 555 471 555 490 _c
_cl}_e}_d
/T{611 0 22 0 588 688 _sc
352 612 _m
352 0 _l
259 0 _l
259 612 _l
22 612 _l
22 688 _l
588 688 _l
588 612 _l
352 612 _l
_cl}_d
/U{{722 0 77 -9 645 688 _sc
357 -9 _m
319 -9 283 -4 249 6 _c
215 16 186 31 160 52 _c
134 73 114 100 99 133 _c
84 166 77 205 77 250 _c
77 688 _l
170 688 _l
170 258 _l
170 223 174 193 184 169 _c
193 145 206 125 223 110 _c
239 94 259 83 282 76 _c
304 69 329 66 356 66 _c
382 66 408 69 432 76 _c
456 83 476 94 494 110 _c
512 126 526 146 536 172 _c
}_e{546 197 552 228 552 264 _c
552 688 _l
645 688 _l
645 259 _l
645 213 637 173 622 139 _c
607 105 586 77 560 55 _c
534 33 503 16 469 6 _c
434 -4 397 -9 357 -9 _c
_cl}_e}_d
/underscore{556 0 -14 -198 567 -134 _sc
-14 -198 _m
-14 -134 _l
567 -134 _l
567 -198 _l
-14 -198 _l
_cl}_d
/a{{556 0 42 -9 556 538 _sc
202 -9 _m
149 -9 109 4 82 32 _c
55 60 42 98 42 147 _c
42 182 48 211 62 233 _c
75 255 92 273 114 286 _c
135 298 159 307 187 312 _c
214 316 242 319 271 320 _c
389 322 _l
389 351 _l
389 373 386 391 382 407 _c
377 422 370 434 361 444 _c
351 453 340 460 326 464 _c
312 468 295 471 276 471 _c
258 471 243 469 229 467 _c
}_e{215 465 204 460 194 454 _c
184 448 176 439 170 428 _c
164 417 160 403 158 387 _c
66 396 _l
69 416 75 435 84 453 _c
93 470 106 485 123 498 _c
139 510 160 520 186 527 _c
211 534 242 538 278 538 _c
344 538 393 522 427 492 _c
461 462 478 418 478 360 _c
478 133 _l
478 107 481 87 488 74 _c
495 60 508 54 527 54 _c
532 54 537 54 542 55 _c
546 55 551 56 556 58 _c
}_e{556 3 _l
545 1 534 0 523 -2 _c
512 -3 500 -4 488 -4 _c
471 -4 457 -2 445 2 _c
433 6 424 12 416 21 _c
408 30 403 41 399 55 _c
395 68 393 83 392 101 _c
389 101 _l
379 84 369 69 358 55 _c
346 41 333 30 318 20 _c
303 10 286 3 267 -1 _c
248 -6 226 -9 202 -9 _c
222 56 _m
250 56 274 61 295 71 _c
316 81 334 95 348 111 _c
}_e{362 127 372 144 379 163 _c
385 181 389 199 389 217 _c
389 261 _l
293 259 _l
271 258 251 256 232 254 _c
212 251 195 246 181 238 _c
166 230 154 218 146 204 _c
137 189 133 170 133 146 _c
133 117 140 95 156 79 _c
171 63 193 56 222 56 _c
_cl}_e}_d
/c{{500 0 42 -9 474 538 _sc
134 267 _m
134 236 136 208 140 183 _c
144 157 152 135 163 117 _c
173 99 187 85 204 75 _c
221 65 242 60 268 60 _c
298 60 324 68 345 85 _c
366 101 379 127 385 163 _c
474 157 _l
470 135 464 114 454 94 _c
444 74 431 56 415 41 _c
398 25 377 13 353 4 _c
329 -4 301 -9 270 -9 _c
228 -9 193 -2 164 11 _c
135 25 112 44 94 69 _c
}_e{76 93 62 122 54 156 _c
46 189 42 225 42 265 _c
42 300 45 331 51 358 _c
57 385 65 409 76 429 _c
86 449 99 467 113 481 _c
127 495 143 506 160 514 _c
176 522 194 528 213 532 _c
231 536 250 538 269 538 _c
298 538 324 534 348 526 _c
371 518 391 506 408 492 _c
424 478 438 461 448 442 _c
458 423 466 402 471 380 _c
380 374 _l
376 402 364 425 346 443 _c
}_e{327 460 301 469 267 469 _c
241 469 220 464 204 456 _c
187 448 173 435 163 419 _c
152 402 144 381 140 356 _c
136 330 134 301 134 267 _c
_cl}_e}_d
/e{{556 0 42 -9 512 538 _sc
135 246 _m
135 218 137 192 143 169 _c
149 145 158 125 170 109 _c
182 92 197 79 215 70 _c
233 60 256 56 282 56 _c
320 56 350 63 373 79 _c
396 94 412 113 420 137 _c
498 115 _l
492 100 484 85 474 71 _c
464 56 450 43 434 31 _c
418 19 397 9 372 2 _c
347 -5 317 -9 282 -9 _c
204 -9 144 14 103 60 _c
62 106 42 176 42 268 _c
}_e{42 317 48 359 61 393 _c
73 427 90 455 112 477 _c
133 498 158 513 187 523 _c
215 533 246 538 279 538 _c
323 538 360 530 390 516 _c
420 502 444 482 462 457 _c
480 431 492 402 500 368 _c
508 334 512 297 512 257 _c
512 246 _l
135 246 _l
421 313 _m
416 368 402 408 378 434 _c
354 460 321 473 277 473 _c
262 473 247 470 231 466 _c
215 461 200 453 186 441 _c
}_e{172 429 161 412 152 392 _c
142 371 137 345 136 313 _c
421 313 _l
_cl}_e}_d
/f{{278 0 14 0 279 724 _sc
176 464 _m
176 0 _l
88 0 _l
88 464 _l
14 464 _l
14 528 _l
88 528 _l
88 588 _l
88 607 89 625 93 641 _c
97 657 103 672 113 684 _c
123 696 136 706 153 713 _c
169 720 191 724 217 724 _c
227 724 238 723 250 722 _c
261 721 271 720 279 718 _c
279 651 _l
273 651 267 652 260 653 _c
252 654 246 655 240 655 _c
227 655 216 653 208 649 _c
}_e{200 645 193 640 189 634 _c
184 627 181 619 179 609 _c
177 599 176 588 176 576 _c
176 528 _l
279 528 _l
279 464 _l
176 464 _l
_cl}_e}_d
/n{{556 0 66 0 491 538 _sc
403 0 _m
403 335 _l
403 361 401 382 397 399 _c
393 416 387 430 379 441 _c
370 451 359 459 345 463 _c
331 467 314 470 294 470 _c
273 470 254 466 237 459 _c
220 451 206 441 194 427 _c
182 413 173 396 167 376 _c
160 356 157 332 157 306 _c
157 0 _l
69 0 _l
69 416 _l
69 426 69 438 69 450 _c
69 462 68 474 68 485 _c
68 495 67 505 67 513 _c
}_e{67 521 66 526 66 528 _c
149 528 _l
149 526 150 522 150 515 _c
150 507 151 499 151 490 _c
151 481 152 472 152 462 _c
152 452 153 444 153 438 _c
155 438 _l
163 453 172 467 182 479 _c
192 491 204 502 218 511 _c
231 519 246 526 264 531 _c
281 535 301 538 324 538 _c
353 538 378 534 399 527 _c
420 520 437 509 451 494 _c
465 479 475 460 481 436 _c
487 412 491 384 491 352 _c
}_e{491 0 _l
403 0 _l
_cl}_e}_d
/o{{556 0 42 -9 514 538 _sc
514 265 _m
514 172 493 103 453 58 _c
412 13 353 -9 276 -9 _c
239 -9 206 -3 177 7 _c
148 17 124 34 104 57 _c
84 80 68 109 58 143 _c
47 177 42 218 42 265 _c
42 447 121 538 279 538 _c
319 538 355 532 385 521 _c
415 509 439 492 458 470 _c
477 447 491 418 500 384 _c
509 350 514 310 514 265 _c
422 265 _m
422 305 418 339 412 366 _c
}_e{406 392 396 414 384 430 _c
372 446 357 457 339 463 _c
321 469 302 473 280 473 _c
258 473 237 469 219 463 _c
201 456 185 445 173 429 _c
160 413 150 391 144 365 _c
137 338 134 305 134 265 _c
134 223 137 189 145 163 _c
152 136 162 115 174 99 _c
186 83 201 71 219 65 _c
236 58 255 55 275 55 _c
297 55 318 58 336 64 _c
354 70 369 82 382 98 _c
}_e{394 114 404 135 411 162 _c
418 189 422 223 422 265 _c
_cl}_e}_d
/s{{500 0 28 -9 464 537 _sc
464 146 _m
464 121 459 99 449 80 _c
439 60 425 44 407 31 _c
389 17 366 7 340 1 _c
314 -5 284 -9 250 -9 _c
219 -9 191 -6 167 -2 _c
142 2 120 9 102 20 _c
83 30 67 44 55 61 _c
43 78 34 99 28 124 _c
105 139 _l
113 111 128 90 152 77 _c
175 63 208 57 250 57 _c
268 57 285 58 301 61 _c
317 63 330 68 342 74 _c
}_e{353 80 362 89 368 100 _c
374 110 378 123 378 139 _c
378 155 374 168 367 178 _c
359 188 349 197 336 204 _c
322 210 306 216 287 221 _c
268 226 247 232 225 239 _c
203 244 182 250 161 257 _c
140 264 121 273 105 284 _c
88 295 74 309 64 326 _c
54 342 49 363 49 389 _c
49 437 66 473 100 499 _c
134 524 184 537 250 537 _c
308 537 355 526 389 506 _c
}_e{423 485 445 452 455 407 _c
375 397 _l
372 411 367 422 359 432 _c
351 441 342 448 331 454 _c
319 460 307 464 293 466 _c
279 468 265 470 250 470 _c
210 470 181 464 162 452 _c
143 440 134 421 134 397 _c
134 383 137 371 144 362 _c
151 352 161 344 174 338 _c
186 332 201 326 219 322 _c
237 317 256 312 277 307 _c
291 303 305 300 320 296 _c
334 292 349 287 363 281 _c
}_e{377 275 390 268 402 261 _c
414 253 424 244 434 233 _c
443 222 450 209 456 195 _c
461 181 464 164 464 146 _c
_cl}_e}_d
/t{278 0 15 -7 271 646 _sc
271 4 _m
257 1 243 -1 229 -3 _c
215 -5 200 -7 182 -7 _c
111 -7 76 32 76 112 _c
76 464 _l
15 464 _l
15 528 _l
80 528 _l
105 646 _l
164 646 _l
164 528 _l
262 528 _l
262 464 _l
164 464 _l
164 131 _l
164 105 168 87 176 77 _c
184 67 199 62 220 62 _c
228 62 236 62 244 64 _c
252 65 261 67 271 69 _c
271 4 _l
_cl}_d
/v{500 0 3 0 497 528 _sc
299 0 _m
195 0 _l
3 528 _l
97 528 _l
213 185 _l
215 177 218 168 221 158 _c
224 148 227 137 231 126 _c
234 115 237 104 240 94 _c
242 84 245 75 247 69 _c
249 75 251 84 254 94 _c
257 104 260 115 264 126 _c
267 136 270 147 274 157 _c
277 167 280 176 283 184 _c
403 528 _l
497 528 _l
299 0 _l
_cl}_d
end readonly def

/BuildGlyph
 {exch begin
 CharStrings exch
 2 copy known not{pop /.notdef}if
 true 3 1 roll get exec
 end}_d

/BuildChar {
 1 index /Encoding get exch get
 1 index /BuildGlyph get exec
}_d

FontName currentdict end definefont pop
end
%%EndProlog
mpldict begin
110.242 286.979 translate
391.516 218.042 0 0 clipbox
100000 setmiterlimit
gsave
0 0 m
391.51625 0 l
391.51625 218.042187 l
0 218.042187 l
cl
1.000 setgray
fill
grestore
gsave
43.35625 38.778125 m
266.55625 38.778125 l
266.55625 206.178125 l
43.35625 206.178125 l
cl
1.000 setgray
fill
grestore
0.150 setgray
/LiberationSans findfont
10.000 scalefont
setfont
gsave
53.160625 24.528125 translate
0.000000 rotate
0.000000 0.000000 m /four glyphshow
5.561523 0.000000 m /nine glyphshow
11.123047 0.000000 m /zero glyphshow
16.684570 0.000000 m /period glyphshow
19.462891 0.000000 m /zero glyphshow
grestore
gsave
97.800625 24.528125 translate
0.000000 rotate
0.000000 0.000000 m /nine glyphshow
5.561523 0.000000 m /nine glyphshow
11.123047 0.000000 m /zero glyphshow
16.684570 0.000000 m /period glyphshow
19.462891 0.000000 m /zero glyphshow
grestore
gsave
139.659375 24.528125 translate
0.000000 rotate
0.000000 0.000000 m /one glyphshow
5.561523 0.000000 m /nine glyphshow
11.123047 0.000000 m /eight glyphshow
16.684570 0.000000 m /nine glyphshow
22.246094 0.000000 m /period glyphshow
25.024414 0.000000 m /zero glyphshow
grestore
gsave
184.299375 24.528125 translate
0.000000 rotate
0.000000 0.000000 m /five glyphshow
5.561523 0.000000 m /three glyphshow
11.123047 0.000000 m /three glyphshow
16.684570 0.000000 m /four glyphshow
22.246094 0.000000 m /period glyphshow
25.024414 0.000000 m /zero glyphshow
grestore
gsave
226.158125 24.528125 translate
0.000000 rotate
0.000000 0.000000 m /one glyphshow
5.561523 0.000000 m /zero glyphshow
11.123047 0.000000 m /four glyphshow
16.684570 0.000000 m /seven glyphshow
22.246094 0.000000 m /seven glyphshow
27.807617 0.000000 m /period glyphshow
30.585938 0.000000 m /zero glyphshow
grestore
/LiberationSans findfont
11.000 scalefont
setfont
gsave
128.018750 9.481250 translate
0.000000 rotate
0.000000 0.000000 m /numbersign glyphshow
6.117676 0.000000 m /uni00A0 glyphshow
9.173828 0.000000 m /o glyphshow
15.291504 0.000000 m /f glyphshow
18.347656 0.000000 m /uni00A0 glyphshow
21.403809 0.000000 m /e glyphshow
27.521484 0.000000 m /v glyphshow
33.021484 0.000000 m /e glyphshow
39.139160 0.000000 m /n glyphshow
45.256836 0.000000 m /t glyphshow
48.312988 0.000000 m /s glyphshow
grestore
1.000 setlinewidth
1 setlinejoin
1 setlinecap
[] 0 setdash
0.800 setgray
gsave
223.2 167.4 43.36 38.78 clipbox
43.35625 38.778125 m
266.55625 38.778125 l
stroke
grestore
0.150 setgray
/LiberationSans findfont
10.000 scalefont
setfont
gsave
22.450000 36.192188 translate
0.000000 rotate
0.000000 0.000000 m /zero glyphshow
5.561523 0.000000 m /period glyphshow
8.339844 0.000000 m /three glyphshow
grestore
0.800 setgray
gsave
223.2 167.4 43.36 38.78 clipbox
43.35625 62.692411 m
266.55625 62.692411 l
stroke
grestore
0.150 setgray
gsave
22.450000 60.106473 translate
0.000000 rotate
0.000000 0.000000 m /zero glyphshow
5.561523 0.000000 m /period glyphshow
8.339844 0.000000 m /four glyphshow
grestore
0.800 setgray
gsave
223.2 167.4 43.36 38.78 clipbox
43.35625 86.606696 m
266.55625 86.606696 l
stroke
grestore
0.150 setgray
gsave
22.450000 84.020759 translate
0.000000 rotate
0.000000 0.000000 m /zero glyphshow
5.561523 0.000000 m /period glyphshow
8.339844 0.000000 m /five glyphshow
grestore
0.800 setgray
gsave
223.2 167.4 43.36 38.78 clipbox
43.35625 110.520982 m
266.55625 110.520982 l
stroke
grestore
0.150 setgray
gsave
22.450000 107.935045 translate
0.000000 rotate
0.000000 0.000000 m /zero glyphshow
5.561523 0.000000 m /period glyphshow
8.339844 0.000000 m /six glyphshow
grestore
0.800 setgray
gsave
223.2 167.4 43.36 38.78 clipbox
43.35625 134.435268 m
266.55625 134.435268 l
stroke
grestore
0.150 setgray
gsave
22.450000 131.849330 translate
0.000000 rotate
0.000000 0.000000 m /zero glyphshow
5.561523 0.000000 m /period glyphshow
8.339844 0.000000 m /seven glyphshow
grestore
0.800 setgray
gsave
223.2 167.4 43.36 38.78 clipbox
43.35625 158.349554 m
266.55625 158.349554 l
stroke
grestore
0.150 setgray
gsave
22.450000 155.763616 translate
0.000000 rotate
0.000000 0.000000 m /zero glyphshow
5.561523 0.000000 m /period glyphshow
8.339844 0.000000 m /eight glyphshow
grestore
0.800 setgray
gsave
223.2 167.4 43.36 38.78 clipbox
43.35625 182.263839 m
266.55625 182.263839 l
stroke
grestore
0.150 setgray
gsave
22.450000 179.677902 translate
0.000000 rotate
0.000000 0.000000 m /zero glyphshow
5.561523 0.000000 m /period glyphshow
8.339844 0.000000 m /nine glyphshow
grestore
0.800 setgray
gsave
223.2 167.4 43.36 38.78 clipbox
43.35625 206.178125 m
266.55625 206.178125 l
stroke
grestore
0.150 setgray
gsave
22.450000 203.592187 translate
0.000000 rotate
0.000000 0.000000 m /one glyphshow
5.561523 0.000000 m /period glyphshow
8.339844 0.000000 m /zero glyphshow
grestore
/LiberationSans findfont
11.000 scalefont
setfont
gsave
15.168750 113.915625 translate
90.000000 rotate
0.000000 0.000000 m /a glyphshow
6.117676 0.000000 m /c glyphshow
11.617676 0.000000 m /c glyphshow
grestore
/p0_0 {
newpath
translate
0 -1.97397 m
0.523503 -1.97397 1.025635 -1.76598 1.395807 -1.395807 c
1.76598 -1.025635 1.97397 -0.523503 1.97397 0 c
1.97397 0.523503 1.76598 1.025635 1.395807 1.395807 c
1.025635 1.76598 0.523503 1.97397 0 1.97397 c
-0.523503 1.97397 -1.025635 1.76598 -1.395807 1.395807 c
-1.76598 1.025635 -1.97397 0.523503 -1.97397 0 c
-1.97397 -0.523503 -1.76598 -1.025635 -1.395807 -1.395807 c
-1.025635 -1.76598 -0.523503 -1.97397 0 -1.97397 c
cl

} bind def
1.181 setlinewidth
0 setlinecap
0.971 0.533 0.603 setrgbcolor
gsave
223.2 167.4 43.36 38.78 clipbox
65.6763 188.12 p0_0
gsave
fill
grestore
stroke
grestore
gsave
223.2 167.4 43.36 38.78 clipbox
110.316 187.82 p0_0
gsave
fill
grestore
stroke
grestore
gsave
223.2 167.4 43.36 38.78 clipbox
154.956 195.357 p0_0
gsave
fill
grestore
stroke
grestore
gsave
223.2 167.4 43.36 38.78 clipbox
199.596 191.876 p0_0
gsave
fill
grestore
stroke
grestore
gsave
223.2 167.4 43.36 38.78 clipbox
244.236 193.259 p0_0
gsave
fill
grestore
stroke
grestore
1.575 setlinewidth
1 setlinecap
gsave
223.2 167.4 43.36 38.78 clipbox
65.67625 188.120399 m
110.31625 187.819683 l
154.95625 195.357181 l
199.59625 191.876181 l
244.23625 193.258887 l
stroke
grestore
3.150 setlinewidth
gsave
223.2 167.4 43.36 38.78 clipbox
0 0 m
stroke
grestore
gsave
223.2 167.4 43.36 38.78 clipbox
0 0 m
stroke
grestore
gsave
223.2 167.4 43.36 38.78 clipbox
0 0 m
stroke
grestore
gsave
223.2 167.4 43.36 38.78 clipbox
0 0 m
stroke
grestore
gsave
223.2 167.4 43.36 38.78 clipbox
0 0 m
stroke
grestore
/p1_0 {
newpath
translate
-1.97397 -1.97397 m
1.97397 -1.97397 l
1.97397 1.97397 l
-1.97397 1.97397 l
cl

} bind def
1.181 setlinewidth
0 setlinecap
0.933 0.582 0.215 setrgbcolor
gsave
223.2 167.4 43.36 38.78 clipbox
65.6763 179.336 p1_0
gsave
fill
grestore
stroke
grestore
gsave
223.2 167.4 43.36 38.78 clipbox
110.316 182.505 p1_0
gsave
fill
grestore
stroke
grestore
gsave
223.2 167.4 43.36 38.78 clipbox
154.956 190.187 p1_0
gsave
fill
grestore
stroke
grestore
gsave
223.2 167.4 43.36 38.78 clipbox
199.596 188.558 p1_0
gsave
fill
grestore
stroke
grestore
gsave
223.2 167.4 43.36 38.78 clipbox
244.236 190.269 p1_0
gsave
fill
grestore
stroke
grestore
1.575 setlinewidth
1 setlinecap
gsave
223.2 167.4 43.36 38.78 clipbox
65.67625 179.335559 m
110.31625 182.505398 l
154.95625 190.187175 l
199.59625 188.558488 l
244.23625 190.268745 l
stroke
grestore
3.150 setlinewidth
gsave
223.2 167.4 43.36 38.78 clipbox
0 0 m
stroke
grestore
gsave
223.2 167.4 43.36 38.78 clipbox
0 0 m
stroke
grestore
gsave
223.2 167.4 43.36 38.78 clipbox
0 0 m
stroke
grestore
gsave
223.2 167.4 43.36 38.78 clipbox
0 0 m
stroke
grestore
gsave
223.2 167.4 43.36 38.78 clipbox
0 0 m
stroke
grestore
1.000 setlinewidth
0 setlinejoin
2 setlinecap
0.800 setgray
gsave
43.35625 206.178125 m
266.55625 206.178125 l
stroke
grestore
gsave
266.55625 38.778125 m
266.55625 206.178125 l
stroke
grestore
gsave
43.35625 38.778125 m
266.55625 38.778125 l
stroke
grestore
gsave
43.35625 38.778125 m
43.35625 206.178125 l
stroke
grestore
/p2_0 {
newpath
translate
0 1.97397 m
-1.97397 -1.97397 l
1.97397 -1.97397 l
cl

} bind def
1.181 setlinewidth
1 setlinejoin
0 setlinecap
0.737 0.667 0.213 setrgbcolor
gsave
223.2 167.4 43.36 38.78 clipbox
65.6763 68.549 p2_0
gsave
fill
grestore
stroke
grestore
gsave
223.2 167.4 43.36 38.78 clipbox
110.316 79.6015 p2_0
gsave
fill
grestore
stroke
grestore
gsave
223.2 167.4 43.36 38.78 clipbox
154.956 84.8633 p2_0
gsave
fill
grestore
stroke
grestore
gsave
223.2 167.4 43.36 38.78 clipbox
199.596 85.441 p2_0
gsave
fill
grestore
stroke
grestore
gsave
223.2 167.4 43.36 38.78 clipbox
244.236 85.6594 p2_0
gsave
fill
grestore
stroke
grestore
1.575 setlinewidth
1 setlinecap
gsave
223.2 167.4 43.36 38.78 clipbox
65.67625 68.54897 m
110.31625 79.601502 l
154.95625 84.863322 l
199.59625 85.441021 l
244.23625 85.659438 l
stroke
grestore
3.150 setlinewidth
gsave
223.2 167.4 43.36 38.78 clipbox
0 0 m
stroke
grestore
gsave
223.2 167.4 43.36 38.78 clipbox
0 0 m
stroke
grestore
gsave
223.2 167.4 43.36 38.78 clipbox
0 0 m
stroke
grestore
gsave
223.2 167.4 43.36 38.78 clipbox
0 0 m
stroke
grestore
gsave
223.2 167.4 43.36 38.78 clipbox
0 0 m
stroke
grestore
/p3_0 {
newpath
translate
-0 -1.97397 m
1.97397 1.97397 l
-1.97397 1.97397 l
cl

} bind def
1.181 setlinewidth
0 setlinecap
0.509 0.726 0.212 setrgbcolor
gsave
223.2 167.4 43.36 38.78 clipbox
65.6763 68.549 p3_0
gsave
fill
grestore
stroke
grestore
gsave
223.2 167.4 43.36 38.78 clipbox
110.316 79.6015 p3_0
gsave
fill
grestore
stroke
grestore
gsave
223.2 167.4 43.36 38.78 clipbox
154.956 84.8633 p3_0
gsave
fill
grestore
stroke
grestore
gsave
223.2 167.4 43.36 38.78 clipbox
199.596 85.441 p3_0
gsave
fill
grestore
stroke
grestore
gsave
223.2 167.4 43.36 38.78 clipbox
244.236 85.6594 p3_0
gsave
fill
grestore
stroke
grestore
1.575 setlinewidth
1 setlinecap
gsave
223.2 167.4 43.36 38.78 clipbox
65.67625 68.54897 m
110.31625 79.601502 l
154.95625 84.863322 l
199.59625 85.441021 l
244.23625 85.659438 l
stroke
grestore
3.150 setlinewidth
gsave
223.2 167.4 43.36 38.78 clipbox
0 0 m
stroke
grestore
gsave
223.2 167.4 43.36 38.78 clipbox
0 0 m
stroke
grestore
gsave
223.2 167.4 43.36 38.78 clipbox
0 0 m
stroke
grestore
gsave
223.2 167.4 43.36 38.78 clipbox
0 0 m
stroke
grestore
gsave
223.2 167.4 43.36 38.78 clipbox
0 0 m
stroke
grestore
/p4_0 {
newpath
translate
-1.97397 0 m
1.97397 -1.97397 l
1.97397 1.97397 l
cl

} bind def
1.181 setlinewidth
0 setlinecap
0.221 0.749 0.521 setrgbcolor
gsave
223.2 167.4 43.36 38.78 clipbox
65.6763 167.134 p4_0
gsave
fill
grestore
stroke
grestore
gsave
223.2 167.4 43.36 38.78 clipbox
110.316 178.399 p4_0
gsave
fill
grestore
stroke
grestore
gsave
223.2 167.4 43.36 38.78 clipbox
154.956 186.219 p4_0
gsave
fill
grestore
stroke
grestore
gsave
223.2 167.4 43.36 38.78 clipbox
199.596 186.137 p4_0
gsave
fill
grestore
stroke
grestore
gsave
223.2 167.4 43.36 38.78 clipbox
244.236 185.863 p4_0
gsave
fill
grestore
stroke
grestore
1.575 setlinewidth
1 setlinecap
gsave
223.2 167.4 43.36 38.78 clipbox
65.67625 167.134393 m
110.31625 178.398904 l
154.95625 186.219495 l
199.59625 186.137469 l
244.23625 185.863422 l
stroke
grestore
3.150 setlinewidth
gsave
223.2 167.4 43.36 38.78 clipbox
0 0 m
stroke
grestore
gsave
223.2 167.4 43.36 38.78 clipbox
0 0 m
stroke
grestore
gsave
223.2 167.4 43.36 38.78 clipbox
0 0 m
stroke
grestore
gsave
223.2 167.4 43.36 38.78 clipbox
0 0 m
stroke
grestore
gsave
223.2 167.4 43.36 38.78 clipbox
0 0 m
stroke
grestore
1.181 setlinewidth
0 setlinecap
0.971 0.533 0.603 setrgbcolor
gsave
281.19125 190.579155 m
281.714753 190.579155 282.216885 190.787145 282.587057 191.157318 c
282.95723 191.52749 283.16522 192.029622 283.16522 192.553125 c
283.16522 193.076628 282.95723 193.57876 282.587057 193.948932 c
282.216885 194.319105 281.714753 194.527095 281.19125 194.527095 c
280.667747 194.527095 280.165615 194.319105 279.795443 193.948932 c
279.42527 193.57876 279.21728 193.076628 279.21728 192.553125 c
279.21728 192.029622 279.42527 191.52749 279.795443 191.157318 c
280.165615 190.787145 280.667747 190.579155 281.19125 190.579155 c
cl
gsave
fill
grestore
stroke
grestore
gsave
281.19125 190.579155 m
281.714753 190.579155 282.216885 190.787145 282.587057 191.157318 c
282.95723 191.52749 283.16522 192.029622 283.16522 192.553125 c
283.16522 193.076628 282.95723 193.57876 282.587057 193.948932 c
282.216885 194.319105 281.714753 194.527095 281.19125 194.527095 c
280.667747 194.527095 280.165615 194.319105 279.795443 193.948932 c
279.42527 193.57876 279.21728 193.076628 279.21728 192.553125 c
279.21728 192.029622 279.42527 191.52749 279.795443 191.157318 c
280.165615 190.787145 280.667747 190.579155 281.19125 190.579155 c
cl
gsave
fill
grestore
stroke
grestore
gsave
281.19125 190.579155 m
281.714753 190.579155 282.216885 190.787145 282.587057 191.157318 c
282.95723 191.52749 283.16522 192.029622 283.16522 192.553125 c
283.16522 193.076628 282.95723 193.57876 282.587057 193.948932 c
282.216885 194.319105 281.714753 194.527095 281.19125 194.527095 c
280.667747 194.527095 280.165615 194.319105 279.795443 193.948932 c
279.42527 193.57876 279.21728 193.076628 279.21728 192.553125 c
279.21728 192.029622 279.42527 191.52749 279.795443 191.157318 c
280.165615 190.787145 280.667747 190.579155 281.19125 190.579155 c
cl
gsave
fill
grestore
stroke
grestore
0.150 setgray
/LiberationSans findfont
10.000 scalefont
setfont
gsave
299.191250 189.928125 translate
0.000000 rotate
0.000000 0.000000 m /R glyphshow
7.221680 0.000000 m /P glyphshow
13.891602 0.000000 m /underscore glyphshow
19.453125 0.000000 m /T glyphshow
25.561523 0.000000 m /R glyphshow
32.783203 0.000000 m /U glyphshow
40.004883 0.000000 m /E glyphshow
grestore
0.933 0.582 0.215 setrgbcolor
gsave
279.21728 176.25103 m
283.16522 176.25103 l
283.16522 180.19897 l
279.21728 180.19897 l
cl
gsave
fill
grestore
stroke
grestore
gsave
279.21728 176.25103 m
283.16522 176.25103 l
283.16522 180.19897 l
279.21728 180.19897 l
cl
gsave
fill
grestore
stroke
grestore
gsave
279.21728 176.25103 m
283.16522 176.25103 l
283.16522 180.19897 l
279.21728 180.19897 l
cl
gsave
fill
grestore
stroke
grestore
0.150 setgray
gsave
299.191250 175.600000 translate
0.000000 rotate
0.000000 0.000000 m /R glyphshow
7.221680 0.000000 m /P glyphshow
13.891602 0.000000 m /underscore glyphshow
19.453125 0.000000 m /F glyphshow
25.561523 0.000000 m /I glyphshow
28.339844 0.000000 m /T glyphshow
grestore
0.737 0.667 0.213 setrgbcolor
gsave
281.19125 165.870845 m
279.21728 161.922905 l
283.16522 161.922905 l
cl
gsave
fill
grestore
stroke
grestore
gsave
281.19125 165.870845 m
279.21728 161.922905 l
283.16522 161.922905 l
cl
gsave
fill
grestore
stroke
grestore
gsave
281.19125 165.870845 m
279.21728 161.922905 l
283.16522 161.922905 l
cl
gsave
fill
grestore
stroke
grestore
0.150 setgray
gsave
299.191250 161.271875 translate
0.000000 rotate
0.000000 0.000000 m /R glyphshow
7.221680 0.000000 m /P glyphshow
13.891602 0.000000 m /underscore glyphshow
19.453125 0.000000 m /T glyphshow
25.561523 0.000000 m /E glyphshow
32.231445 0.000000 m /M glyphshow
40.561523 0.000000 m /P glyphshow
47.231445 0.000000 m /underscore glyphshow
52.792969 0.000000 m /T glyphshow
58.901367 0.000000 m /R glyphshow
66.123047 0.000000 m /U glyphshow
73.344727 0.000000 m /E glyphshow
grestore
0.509 0.726 0.212 setrgbcolor
gsave
281.19125 147.59478 m
283.16522 151.54272 l
279.21728 151.54272 l
cl
gsave
fill
grestore
stroke
grestore
gsave
281.19125 147.59478 m
283.16522 151.54272 l
279.21728 151.54272 l
cl
gsave
fill
grestore
stroke
grestore
gsave
281.19125 147.59478 m
283.16522 151.54272 l
279.21728 151.54272 l
cl
gsave
fill
grestore
stroke
grestore
0.150 setgray
gsave
299.191250 146.943750 translate
0.000000 rotate
0.000000 0.000000 m /R glyphshow
7.221680 0.000000 m /P glyphshow
13.891602 0.000000 m /underscore glyphshow
19.453125 0.000000 m /T glyphshow
25.561523 0.000000 m /E glyphshow
32.231445 0.000000 m /M glyphshow
40.561523 0.000000 m /P glyphshow
47.231445 0.000000 m /underscore glyphshow
52.792969 0.000000 m /F glyphshow
58.901367 0.000000 m /I glyphshow
61.679688 0.000000 m /T glyphshow
grestore
0.221 0.749 0.521 setrgbcolor
gsave
279.21728 135.240625 m
283.16522 133.266655 l
283.16522 137.214595 l
cl
gsave
fill
grestore
stroke
grestore
gsave
279.21728 135.240625 m
283.16522 133.266655 l
283.16522 137.214595 l
cl
gsave
fill
grestore
stroke
grestore
gsave
279.21728 135.240625 m
283.16522 133.266655 l
283.16522 137.214595 l
cl
gsave
fill
grestore
stroke
grestore
0.150 setgray
gsave
299.191250 132.615625 translate
0.000000 rotate
0.000000 0.000000 m /R glyphshow
7.221680 0.000000 m /P glyphshow
13.891602 0.000000 m /underscore glyphshow
19.453125 0.000000 m /M glyphshow
27.783203 0.000000 m /A glyphshow
34.453125 0.000000 m /R glyphshow
41.674805 0.000000 m /K glyphshow
48.344727 0.000000 m /underscore glyphshow
53.906250 0.000000 m /T glyphshow
60.014648 0.000000 m /R glyphshow
67.236328 0.000000 m /U glyphshow
74.458008 0.000000 m /E glyphshow
grestore
0.231 0.734 0.698 setrgbcolor
gsave
283.16522 120.9125 m
279.21728 122.88647 l
279.21728 118.93853 l
cl
gsave
fill
grestore
stroke
grestore
gsave
283.16522 120.9125 m
279.21728 122.88647 l
279.21728 118.93853 l
cl
gsave
fill
grestore
stroke
grestore
gsave
283.16522 120.9125 m
279.21728 122.88647 l
279.21728 118.93853 l
cl
gsave
fill
grestore
stroke
grestore
0.150 setgray
gsave
299.191250 118.287500 translate
0.000000 rotate
0.000000 0.000000 m /R glyphshow
7.221680 0.000000 m /P glyphshow
13.891602 0.000000 m /underscore glyphshow
19.453125 0.000000 m /M glyphshow
27.783203 0.000000 m /A glyphshow
34.453125 0.000000 m /R glyphshow
41.674805 0.000000 m /K glyphshow
48.344727 0.000000 m /underscore glyphshow
53.906250 0.000000 m /F glyphshow
60.014648 0.000000 m /I glyphshow
62.792969 0.000000 m /T glyphshow
grestore
0.241 0.718 0.837 setrgbcolor
gsave
279.21728 106.584375 m
283.16522 106.584375 l
281.19125 104.610405 m
281.19125 108.558345 l
gsave
fill
grestore
stroke
grestore
gsave
279.21728 106.584375 m
283.16522 106.584375 l
281.19125 104.610405 m
281.19125 108.558345 l
gsave
fill
grestore
stroke
grestore
gsave
279.21728 106.584375 m
283.16522 106.584375 l
281.19125 104.610405 m
281.19125 108.558345 l
gsave
fill
grestore
stroke
grestore
0.150 setgray
gsave
299.191250 103.959375 translate
0.000000 rotate
0.000000 0.000000 m /N glyphshow
7.221680 0.000000 m /B glyphshow
13.891602 0.000000 m /underscore glyphshow
19.453125 0.000000 m /zero glyphshow
25.014648 0.000000 m /period glyphshow
27.792969 0.000000 m /one glyphshow
grestore
0.526 0.659 0.965 setrgbcolor
gsave
279.21728 90.28228 m
283.16522 94.23022 l
279.21728 94.23022 m
283.16522 90.28228 l
gsave
fill
grestore
stroke
grestore
gsave
279.21728 90.28228 m
283.16522 94.23022 l
279.21728 94.23022 m
283.16522 90.28228 l
gsave
fill
grestore
stroke
grestore
gsave
279.21728 90.28228 m
283.16522 94.23022 l
279.21728 94.23022 m
283.16522 90.28228 l
gsave
fill
grestore
stroke
grestore
0.150 setgray
gsave
299.191250 89.631250 translate
0.000000 rotate
0.000000 0.000000 m /N glyphshow
7.221680 0.000000 m /B glyphshow
13.891602 0.000000 m /underscore glyphshow
19.453125 0.000000 m /zero glyphshow
25.014648 0.000000 m /period glyphshow
27.792969 0.000000 m /three glyphshow
grestore
0.824 0.558 0.964 setrgbcolor
gsave
281.19125 75.13651 m
283.982865 77.928125 l
281.19125 80.71974 l
278.399635 77.928125 l
cl
gsave
fill
grestore
stroke
grestore
gsave
281.19125 75.13651 m
283.982865 77.928125 l
281.19125 80.71974 l
278.399635 77.928125 l
cl
gsave
fill
grestore
stroke
grestore
gsave
281.19125 75.13651 m
283.982865 77.928125 l
281.19125 80.71974 l
278.399635 77.928125 l
cl
gsave
fill
grestore
stroke
grestore
0.150 setgray
gsave
299.191250 75.303125 translate
0.000000 rotate
0.000000 0.000000 m /N glyphshow
7.221680 0.000000 m /B glyphshow
13.891602 0.000000 m /underscore glyphshow
19.453125 0.000000 m /zero glyphshow
25.014648 0.000000 m /period glyphshow
27.792969 0.000000 m /five glyphshow
grestore
0.967 0.501 0.824 setrgbcolor
gsave
281.19125 65.57397 m
279.313893 64.20999 l
280.03098 62.003025 l
282.35152 62.003025 l
283.068607 64.20999 l
cl
gsave
fill
grestore
stroke
grestore
gsave
281.19125 65.57397 m
279.313893 64.20999 l
280.03098 62.003025 l
282.35152 62.003025 l
283.068607 64.20999 l
cl
gsave
fill
grestore
stroke
grestore
gsave
281.19125 65.57397 m
279.313893 64.20999 l
280.03098 62.003025 l
282.35152 62.003025 l
283.068607 64.20999 l
cl
gsave
fill
grestore
stroke
grestore
0.150 setgray
gsave
299.191250 60.975000 translate
0.000000 rotate
0.000000 0.000000 m /N glyphshow
7.221680 0.000000 m /B glyphshow
13.891602 0.000000 m /underscore glyphshow
19.453125 0.000000 m /zero glyphshow
25.014648 0.000000 m /period glyphshow
27.792969 0.000000 m /seven glyphshow
grestore
/p5_0 {
newpath
translate
1.97397 -0 m
-1.97397 1.97397 l
-1.97397 -1.97397 l
cl

} bind def
0.231 0.734 0.698 setrgbcolor
gsave
223.2 167.4 43.36 38.78 clipbox
65.6763 178.848 p5_0
gsave
fill
grestore
stroke
grestore
gsave
223.2 167.4 43.36 38.78 clipbox
110.316 178.399 p5_0
gsave
fill
grestore
stroke
grestore
gsave
223.2 167.4 43.36 38.78 clipbox
154.956 183.574 p5_0
gsave
fill
grestore
stroke
grestore
gsave
223.2 167.4 43.36 38.78 clipbox
199.596 181.654 p5_0
gsave
fill
grestore
stroke
grestore
1.575 setlinewidth
1 setlinecap
gsave
223.2 167.4 43.36 38.78 clipbox
65.67625 178.847513 m
110.31625 178.398904 l
154.95625 183.574376 l
199.59625 181.654101 l
stroke
grestore
3.150 setlinewidth
gsave
223.2 167.4 43.36 38.78 clipbox
0 0 m
stroke
grestore
gsave
223.2 167.4 43.36 38.78 clipbox
0 0 m
stroke
grestore
gsave
223.2 167.4 43.36 38.78 clipbox
0 0 m
stroke
grestore
gsave
223.2 167.4 43.36 38.78 clipbox
0 0 m
stroke
grestore
gsave
223.2 167.4 43.36 38.78 clipbox
0 0 m
stroke
grestore
/p6_0 {
newpath
translate
-1.97397 0 m
1.97397 0 l
0 -1.97397 m
0 1.97397 l

} bind def
1.181 setlinewidth
0 setlinecap
0.241 0.718 0.837 setrgbcolor
gsave
223.2 167.4 43.36 38.78 clipbox
65.6763 145.443 p6_0
gsave
fill
grestore
stroke
grestore
gsave
223.2 167.4 43.36 38.78 clipbox
110.316 145.789 p6_0
gsave
fill
grestore
stroke
grestore
gsave
223.2 167.4 43.36 38.78 clipbox
154.956 138.748 p6_0
gsave
fill
grestore
stroke
grestore
gsave
223.2 167.4 43.36 38.78 clipbox
199.596 137.887 p6_0
gsave
fill
grestore
stroke
grestore
gsave
223.2 167.4 43.36 38.78 clipbox
244.236 139.482 p6_0
gsave
fill
grestore
stroke
grestore
1.575 setlinewidth
1 setlinecap
gsave
223.2 167.4 43.36 38.78 clipbox
65.67625 145.443431 m
110.31625 145.788515 l
154.95625 138.748118 l
199.59625 137.887174 l
244.23625 139.481867 l
stroke
grestore
3.150 setlinewidth
gsave
223.2 167.4 43.36 38.78 clipbox
0 0 m
stroke
grestore
gsave
223.2 167.4 43.36 38.78 clipbox
0 0 m
stroke
grestore
gsave
223.2 167.4 43.36 38.78 clipbox
0 0 m
stroke
grestore
gsave
223.2 167.4 43.36 38.78 clipbox
0 0 m
stroke
grestore
gsave
223.2 167.4 43.36 38.78 clipbox
0 0 m
stroke
grestore
/p7_0 {
newpath
translate
-1.97397 -1.97397 m
1.97397 1.97397 l
-1.97397 1.97397 m
1.97397 -1.97397 l

} bind def
1.181 setlinewidth
0 setlinecap
0.526 0.659 0.965 setrgbcolor
gsave
223.2 167.4 43.36 38.78 clipbox
65.6763 159.465 p7_0
gsave
fill
grestore
stroke
grestore
gsave
223.2 167.4 43.36 38.78 clipbox
110.316 156.486 p7_0
gsave
fill
grestore
stroke
grestore
gsave
223.2 167.4 43.36 38.78 clipbox
154.956 154.847 p7_0
gsave
fill
grestore
stroke
grestore
gsave
223.2 167.4 43.36 38.78 clipbox
199.596 149.563 p7_0
gsave
fill
grestore
stroke
grestore
gsave
223.2 167.4 43.36 38.78 clipbox
244.236 149.572 p7_0
gsave
fill
grestore
stroke
grestore
1.575 setlinewidth
1 setlinecap
gsave
223.2 167.4 43.36 38.78 clipbox
65.67625 159.465089 m
110.31625 156.486103 l
154.95625 154.84739 l
199.59625 149.562623 l
244.23625 149.571635 l
stroke
grestore
3.150 setlinewidth
gsave
223.2 167.4 43.36 38.78 clipbox
0 0 m
stroke
grestore
gsave
223.2 167.4 43.36 38.78 clipbox
0 0 m
stroke
grestore
gsave
223.2 167.4 43.36 38.78 clipbox
0 0 m
stroke
grestore
gsave
223.2 167.4 43.36 38.78 clipbox
0 0 m
stroke
grestore
gsave
223.2 167.4 43.36 38.78 clipbox
0 0 m
stroke
grestore
/p8_0 {
newpath
translate
-0 -2.791615 m
2.791615 0 l
0 2.791615 l
-2.791615 0 l
cl

} bind def
1.181 setlinewidth
0 setlinecap
0.824 0.558 0.964 setrgbcolor
gsave
223.2 167.4 43.36 38.78 clipbox
65.6763 172.015 p8_0
gsave
fill
grestore
stroke
grestore
gsave
223.2 167.4 43.36 38.78 clipbox
110.316 162.698 p8_0
gsave
fill
grestore
stroke
grestore
gsave
223.2 167.4 43.36 38.78 clipbox
154.956 160.032 p8_0
gsave
fill
grestore
stroke
grestore
gsave
223.2 167.4 43.36 38.78 clipbox
199.596 157.04 p8_0
gsave
fill
grestore
stroke
grestore
gsave
223.2 167.4 43.36 38.78 clipbox
244.236 157.564 p8_0
gsave
fill
grestore
stroke
grestore
1.575 setlinewidth
1 setlinecap
gsave
223.2 167.4 43.36 38.78 clipbox
65.67625 172.01486 m
110.31625 162.697606 l
154.95625 160.031966 l
199.59625 157.04041 l
244.23625 157.564431 l
stroke
grestore
3.150 setlinewidth
gsave
223.2 167.4 43.36 38.78 clipbox
0 0 m
stroke
grestore
gsave
223.2 167.4 43.36 38.78 clipbox
0 0 m
stroke
grestore
gsave
223.2 167.4 43.36 38.78 clipbox
0 0 m
stroke
grestore
gsave
223.2 167.4 43.36 38.78 clipbox
0 0 m
stroke
grestore
gsave
223.2 167.4 43.36 38.78 clipbox
0 0 m
stroke
grestore
/p9_0 {
newpath
translate
0 1.97397 m
-1.877357 0.60999 l
-1.16027 -1.596975 l
1.16027 -1.596975 l
1.877357 0.60999 l
cl

} bind def
1.181 setlinewidth
0 setlinecap
0.967 0.501 0.824 setrgbcolor
gsave
223.2 167.4 43.36 38.78 clipbox
65.6763 175.269 p9_0
gsave
fill
grestore
stroke
grestore
gsave
223.2 167.4 43.36 38.78 clipbox
110.316 165.113 p9_0
gsave
fill
grestore
stroke
grestore
gsave
223.2 167.4 43.36 38.78 clipbox
154.956 162.516 p9_0
gsave
fill
grestore
stroke
grestore
gsave
223.2 167.4 43.36 38.78 clipbox
199.596 165.101 p9_0
gsave
fill
grestore
stroke
grestore
gsave
223.2 167.4 43.36 38.78 clipbox
244.236 158.715 p9_0
gsave
fill
grestore
stroke
grestore
1.575 setlinewidth
1 setlinecap
gsave
223.2 167.4 43.36 38.78 clipbox
65.67625 175.268504 m
110.31625 165.11319 l
154.95625 162.515526 l
199.59625 165.10112 l
244.23625 158.714657 l
stroke
grestore
3.150 setlinewidth
gsave
223.2 167.4 43.36 38.78 clipbox
0 0 m
stroke
grestore
gsave
223.2 167.4 43.36 38.78 clipbox
0 0 m
stroke
grestore
gsave
223.2 167.4 43.36 38.78 clipbox
0 0 m
stroke
grestore
gsave
223.2 167.4 43.36 38.78 clipbox
0 0 m
stroke
grestore
gsave
223.2 167.4 43.36 38.78 clipbox
0 0 m
stroke
grestore

end
showpage
