\contentsline {section}{\numberline {1}Model}{1}{section.1}
\contentsline {section}{\numberline {2}Bayesian Inference}{2}{section.2}
\contentsline {subsection}{\numberline {2.1}Simplest Gibbs Sampler: Constant Baseline Rate}{2}{subsection.2.1}
\contentsline {subsection}{\numberline {2.2}Inferring Kernel Parameters}{4}{subsection.2.2}
\contentsline {section}{\numberline {3}Discussions}{4}{section.3}
